<?xml version="1.0" encoding="UTF-8" standalone="no"?>

<svg
   xmlns:dc="http://purl.org/dc/elements/1.1/"
   xmlns:cc="http://creativecommons.org/ns#"
   xmlns:rdf="http://www.w3.org/1999/02/22-rdf-syntax-ns#"
   xmlns:svg="http://www.w3.org/2000/svg"
   xmlns="http://www.w3.org/2000/svg"
   xmlns:xlink="http://www.w3.org/1999/xlink"
   version="1.1"
   width="256"
   height="256"
   id="svg15992">
  <defs
     id="defs15994">
    <linearGradient
       x1="152"
       y1="-1192.6378"
       x2="113.88176"
       y2="-1230.7561"
       id="linearGradient17913"
       xlink:href="#linearGradient7931-2"
       gradientUnits="userSpaceOnUse"
       gradientTransform="matrix(0.097561,0,0,0.097561,4491.17,-1734.283)" />
    <linearGradient
       id="linearGradient7931-2">
      <stop
         id="stop7933-1"
         style="stop-color:#000000;stop-opacity:1"
         offset="0" />
      <stop
         id="stop7968-3"
         style="stop-color:#000000;stop-opacity:0.36078432"
         offset="0.45461464" />
      <stop
         id="stop7935-7"
         style="stop-color:#000000;stop-opacity:0"
         offset="1" />
    </linearGradient>
    <linearGradient
       x1="3609.488"
       y1="796.23029"
       x2="3609.488"
       y2="799.70251"
       id="linearGradient10908-8"
       xlink:href="#linearGradient10949"
       gradientUnits="userSpaceOnUse"
       gradientTransform="matrix(1.00041,0,0,0.956522,104.895,-68.6364)" />
    <linearGradient
       id="linearGradient10949">
      <stop
         id="stop10951"
         style="stop-color:#4d4d4d;stop-opacity:1"
         offset="0" />
      <stop
         id="stop10953"
         style="stop-color:#666666;stop-opacity:1"
         offset="1" />
    </linearGradient>
    <linearGradient
       x1="-17"
       y1="-1194.6378"
       x2="144"
       y2="-1194.6378"
       id="linearGradient17922"
       xlink:href="#linearGradient10341"
       gradientUnits="userSpaceOnUse"
       gradientTransform="matrix(0.236025,0,0,0.999984,-1896.63,-3254.38)" />
    <linearGradient
       id="linearGradient10341">
      <stop
         id="stop10343"
         style="stop-color:#e9b913;stop-opacity:0"
         offset="0" />
      <stop
         id="stop10345"
         style="stop-color:#fc5c00;stop-opacity:1"
         offset="0.49305555" />
      <stop
         id="stop10347"
         style="stop-color:#e9b913;stop-opacity:0"
         offset="1" />
    </linearGradient>
    <linearGradient
       x1="529.25"
       y1="-1568.6378"
       x2="535"
       y2="-1574.6378"
       id="linearGradient17927"
       xlink:href="#linearGradient10216"
       gradientUnits="userSpaceOnUse"
       gradientTransform="matrix(1.66667,0,0,3,3566.33,2842.28)" />
    <linearGradient
       id="linearGradient10216">
      <stop
         id="stop10218"
         style="stop-color:#fc5c00;stop-opacity:1"
         offset="0" />
      <stop
         id="stop10220"
         style="stop-color:#cccccc;stop-opacity:0"
         offset="1" />
    </linearGradient>
    <linearGradient
       x1="-17"
       y1="-1194.6378"
       x2="144"
       y2="-1194.6378"
       id="linearGradient17917"
       xlink:href="#linearGradient8074-2"
       gradientUnits="userSpaceOnUse"
       gradientTransform="matrix(0.335404,0,0,0.999984,-1896.44,-3251.38)" />
    <linearGradient
       id="linearGradient8074-2">
      <stop
         id="stop8076-1"
         style="stop-color:#000000;stop-opacity:0"
         offset="0" />
      <stop
         id="stop8078-94"
         style="stop-color:#000000;stop-opacity:1"
         offset="0.49305555" />
      <stop
         id="stop8080-0"
         style="stop-color:#000000;stop-opacity:0"
         offset="1" />
    </linearGradient>
    <linearGradient
       x1="-17"
       y1="-1194.6378"
       x2="144"
       y2="-1194.6378"
       id="linearGradient16677"
       xlink:href="#linearGradient8074-2"
       gradientUnits="userSpaceOnUse"
       gradientTransform="matrix(0.482919,0,0,1,-1591.18,-2474.36)" />
    <linearGradient
       x1="152"
       y1="-1192.6378"
       x2="113.88176"
       y2="-1230.7561"
       id="linearGradient21866"
       xlink:href="#linearGradient7931-2"
       gradientUnits="userSpaceOnUse"
       gradientTransform="matrix(0.097561,0,0,0.097561,4491.17,-1734.283)" />
    <linearGradient
       x1="-17"
       y1="-1194.6378"
       x2="144"
       y2="-1194.6378"
       id="linearGradient21894"
       xlink:href="#linearGradient8074-2"
       gradientUnits="userSpaceOnUse"
       gradientTransform="matrix(0.335404,0,0,0.999984,-1896.44,-3251.38)" />
    <linearGradient
       x1="-17"
       y1="-1194.6378"
       x2="144"
       y2="-1194.6378"
       id="linearGradient21904"
       xlink:href="#linearGradient10341"
       gradientUnits="userSpaceOnUse"
       gradientTransform="matrix(0.236025,0,0,0.999984,-1896.63,-3254.38)" />
    <linearGradient
       x1="529.25"
       y1="-1568.6378"
       x2="535"
       y2="-1574.6378"
       id="linearGradient21923"
       xlink:href="#linearGradient10216"
       gradientUnits="userSpaceOnUse"
       gradientTransform="matrix(1.66667,0,0,3,3566.33,2842.28)" />
    <linearGradient
       id="linearGradient10725">
      <stop
         id="stop10727"
         style="stop-color:#fff6dd;stop-opacity:1"
         offset="0" />
      <stop
         id="stop10729"
         style="stop-color:#ffffff;stop-opacity:1"
         offset="1" />
    </linearGradient>
    <linearGradient
       id="linearGradient13374">
      <stop
         id="stop13376"
         style="stop-color:#ffffff;stop-opacity:0.64999998"
         offset="0" />
      <stop
         id="stop13378"
         style="stop-color:#ffffff;stop-opacity:0.949"
         offset="1" />
    </linearGradient>
    <linearGradient
       id="linearGradient10286">
      <stop
         id="stop10288"
         style="stop-color:#b3b3b3;stop-opacity:1"
         offset="0" />
      <stop
         id="stop10290"
         style="stop-color:#e6e6e6;stop-opacity:1"
         offset="1" />
    </linearGradient>
    <linearGradient
       id="linearGradient10292">
      <stop
         id="stop10294"
         style="stop-color:#666666;stop-opacity:1"
         offset="0" />
      <stop
         id="stop10296"
         style="stop-color:#333333;stop-opacity:1"
         offset="1" />
    </linearGradient>
    <linearGradient
       x1="110.96875"
       y1="976.29968"
       x2="110.96875"
       y2="992.375"
       id="linearGradient11785"
       xlink:href="#linearGradient10292"
       gradientUnits="userSpaceOnUse"
       gradientTransform="matrix(8.03255,0,0,8.07448,2717.94,-9050.31)" />
    <linearGradient
       x1="529.25"
       y1="-1568.6378"
       x2="535"
       y2="-1574.6378"
       id="linearGradient22106"
       xlink:href="#linearGradient10216"
       gradientUnits="userSpaceOnUse"
       gradientTransform="matrix(1.66667,0,0,3,3566.33,2842.28)" />
    <linearGradient
       x1="-17"
       y1="-1194.6378"
       x2="144"
       y2="-1194.6378"
       id="linearGradient22110"
       xlink:href="#linearGradient10341"
       gradientUnits="userSpaceOnUse"
       gradientTransform="matrix(0.236025,0,0,0.999984,-1896.63,-3254.38)" />
    <linearGradient
       x1="-17"
       y1="-1194.6378"
       x2="144"
       y2="-1194.6378"
       id="linearGradient22114"
       xlink:href="#linearGradient8074-2"
       gradientUnits="userSpaceOnUse"
       gradientTransform="matrix(0.335404,0,0,0.999984,-1896.44,-3251.38)" />
    <linearGradient
       x1="152"
       y1="-1192.6378"
       x2="113.88176"
       y2="-1230.7561"
       id="linearGradient22118"
       xlink:href="#linearGradient7931-2"
       gradientUnits="userSpaceOnUse"
       gradientTransform="matrix(0.097561,0,0,0.097561,4491.17,-1734.283)" />
    <linearGradient
       x1="3609.488"
       y1="796.23029"
       x2="3609.488"
       y2="799.70251"
       id="linearGradient22751"
       xlink:href="#linearGradient10949"
       gradientUnits="userSpaceOnUse"
       gradientTransform="matrix(1.00041,0,0,0.956522,104.895,-68.6364)" />
    <linearGradient
       x1="529.25"
       y1="-1568.6378"
       x2="535"
       y2="-1574.6378"
       id="linearGradient22784"
       xlink:href="#linearGradient10216"
       gradientUnits="userSpaceOnUse"
       gradientTransform="matrix(1.66667,0,0,3,-921.78905,6529.8976)" />
    <linearGradient
       x1="-17"
       y1="-1194.6378"
       x2="144"
       y2="-1194.6378"
       id="linearGradient22788"
       xlink:href="#linearGradient10341"
       gradientUnits="userSpaceOnUse"
       gradientTransform="matrix(0.236025,0,0,0.999984,1790.9876,908.501)" />
    <linearGradient
       x1="-17"
       y1="-1194.6378"
       x2="144"
       y2="-1194.6378"
       id="linearGradient22792"
       xlink:href="#linearGradient8074-2"
       gradientUnits="userSpaceOnUse"
       gradientTransform="matrix(0.335404,0,0,0.999984,1791.1776,905.501)" />
    <linearGradient
       x1="152"
       y1="-1192.6378"
       x2="113.88176"
       y2="-1230.7561"
       id="linearGradient22796"
       xlink:href="#linearGradient7931-2"
       gradientUnits="userSpaceOnUse"
       gradientTransform="matrix(0.097561,0,0,0.097561,3.05095,1953.3346)" />
    <linearGradient
       id="linearGradient10292-9-5">
      <stop
         id="stop10294-9-37"
         style="stop-color:#666666;stop-opacity:1"
         offset="0" />
      <stop
         id="stop10296-6-3"
         style="stop-color:#333333;stop-opacity:1"
         offset="1" />
    </linearGradient>
    <linearGradient
       x1="3716.1616"
       y1="683.97705"
       x2="3716.1616"
       y2="705.13123"
       id="linearGradient8485"
       xlink:href="#linearGradient10292-3"
       gradientUnits="userSpaceOnUse" />
    <linearGradient
       id="linearGradient10292-3">
      <stop
         id="stop10294-6"
         style="stop-color:#666666;stop-opacity:1"
         offset="0" />
      <stop
         id="stop10296-0"
         style="stop-color:#333333;stop-opacity:1"
         offset="1" />
    </linearGradient>
    <linearGradient
       id="linearGradient15606-5">
      <stop
         id="stop15608-1"
         style="stop-color:#ffffff;stop-opacity:0.58823532"
         offset="0" />
      <stop
         id="stop15610-5-7"
         style="stop-color:#ffffff;stop-opacity:0.86274511"
         offset="1" />
    </linearGradient>
    <linearGradient
       x1="110.96875"
       y1="976.29968"
       x2="110.96875"
       y2="992.375"
       id="linearGradient20472"
       xlink:href="#linearGradient10292-9-2-6-6"
       gradientUnits="userSpaceOnUse" />
    <linearGradient
       id="linearGradient10292-9-2-6-6">
      <stop
         id="stop10294-9-9-7-8"
         style="stop-color:#666666;stop-opacity:1"
         offset="0" />
      <stop
         id="stop10296-6-6-7-4"
         style="stop-color:#333333;stop-opacity:1"
         offset="1" />
    </linearGradient>
    <linearGradient
       id="linearGradient10292-00">
      <stop
         id="stop10294-49"
         style="stop-color:#666666;stop-opacity:1"
         offset="0" />
      <stop
         id="stop10296-4"
         style="stop-color:#333333;stop-opacity:1"
         offset="1" />
    </linearGradient>
    <linearGradient
       id="linearGradient10286-3">
      <stop
         id="stop10288-8"
         style="stop-color:#b3b3b3;stop-opacity:1"
         offset="0" />
      <stop
         id="stop10290-7"
         style="stop-color:#e6e6e6;stop-opacity:1"
         offset="1" />
    </linearGradient>
    <linearGradient
       x1="209.0625"
       y1="-765.46082"
       x2="209.0625"
       y2="-781.62268"
       id="linearGradient20476"
       xlink:href="#linearGradient15606-1"
       gradientUnits="userSpaceOnUse"
       gradientTransform="matrix(1.5,0,0,1.5,-368,281.32)" />
    <linearGradient
       id="linearGradient15606-1">
      <stop
         id="stop15608-0"
         style="stop-color:#ffffff;stop-opacity:0.58823532"
         offset="0" />
      <stop
         id="stop15610-5"
         style="stop-color:#ffffff;stop-opacity:0.86274511"
         offset="1" />
    </linearGradient>
    <linearGradient
       x1="110.96875"
       y1="976.29968"
       x2="110.99982"
       y2="991.87488"
       id="linearGradient23008"
       xlink:href="#linearGradient10292-00"
       gradientUnits="userSpaceOnUse"
       gradientTransform="matrix(1,0,0,1.00011,0,-0.10551)" />
    <linearGradient
       x1="110.96875"
       y1="976.29968"
       x2="110.96875"
       y2="992.375"
       id="linearGradient23010"
       xlink:href="#linearGradient10292-00"
       gradientUnits="userSpaceOnUse"
       gradientTransform="matrix(1.00399,0,0,1.00959,-1.1658,-9.36636)" />
    <linearGradient
       x1="110.96875"
       y1="976.29968"
       x2="110.96875"
       y2="992.375"
       id="linearGradient23012"
       xlink:href="#linearGradient10292-9-2-6-6"
       gradientUnits="userSpaceOnUse" />
    <linearGradient
       x1="294.3429"
       y1="256.58133"
       x2="294.41818"
       y2="243.13852"
       id="linearGradient23014"
       xlink:href="#linearGradient10286-3"
       gradientUnits="userSpaceOnUse"
       gradientTransform="matrix(2.99213,0,0,3.00466,-933.712,-1623.08)" />
    <linearGradient
       x1="209.0625"
       y1="-765.46082"
       x2="209.0625"
       y2="-781.62268"
       id="linearGradient23016"
       xlink:href="#linearGradient15606-1"
       gradientUnits="userSpaceOnUse"
       gradientTransform="matrix(1.5,0,0,1.5,-368,281.32)" />
    <linearGradient
       x1="3618.4375"
       y1="-758.63782"
       x2="3618.4375"
       y2="-772.63782"
       id="linearGradient23018"
       xlink:href="#linearGradient15606-5"
       gradientUnits="userSpaceOnUse"
       gradientTransform="matrix(1.5,0,0,1.57143,-5436.8089,2107.3635)" />
    <linearGradient
       x1="3716.1616"
       y1="683.97705"
       x2="3716.1616"
       y2="705.13123"
       id="linearGradient23020"
       xlink:href="#linearGradient10292-3"
       gradientUnits="userSpaceOnUse" />
    <linearGradient
       x1="3716.1616"
       y1="683.97705"
       x2="3716.1616"
       y2="705.13123"
       id="linearGradient23022"
       xlink:href="#linearGradient10292-3"
       gradientUnits="userSpaceOnUse" />
    <linearGradient
       x1="195.75"
       y1="1016.2372"
       x2="195.75"
       y2="1032.2383"
       id="linearGradient23024"
       xlink:href="#linearGradient10292-9-5"
       gradientUnits="userSpaceOnUse"
       gradientTransform="translate(-198.30892,-120.64454)" />
    <linearGradient
       x1="195.75"
       y1="1016.2372"
       x2="195.75"
       y2="1032.2383"
       id="linearGradient23026"
       xlink:href="#linearGradient10292-9-5"
       gradientUnits="userSpaceOnUse"
       gradientTransform="matrix(-1,0,0,1,196.69108,-121.14454)" />
    <linearGradient
       x1="815.12506"
       y1="-1491.6379"
       x2="815.12506"
       y2="-1543.6378"
       id="linearGradient22171"
       xlink:href="#linearGradient10478"
       gradientUnits="userSpaceOnUse"
       gradientTransform="matrix(1.64102,0,0,0.500001,2374.52,-746.817)" />
    <linearGradient
       id="linearGradient10478">
      <stop
         id="stop10480"
         style="stop-color:#727272;stop-opacity:1"
         offset="0" />
      <stop
         id="stop10482"
         style="stop-color:#b3b3b3;stop-opacity:1"
         offset="1" />
    </linearGradient>
    <linearGradient
       x1="3793.25"
       y1="-1603.6466"
       x2="3793.25"
       y2="-1561.3872"
       id="linearGradient22173"
       xlink:href="#linearGradient10331"
       gradientUnits="userSpaceOnUse" />
    <linearGradient
       id="linearGradient10331">
      <stop
         id="stop10333"
         style="stop-color:#cccccc;stop-opacity:1"
         offset="0" />
      <stop
         id="stop10335"
         style="stop-color:#b3b3b3;stop-opacity:1"
         offset="1" />
    </linearGradient>
    <linearGradient
       x1="3658.22"
       y1="-1076.6246"
       x2="3658.22"
       y2="-1117.8441"
       id="linearGradient22175"
       xlink:href="#linearGradient9981"
       gradientUnits="userSpaceOnUse"
       gradientTransform="matrix(1.90625,0,0,1.85714,-3264.03,477.832)" />
    <linearGradient
       id="linearGradient9981">
      <stop
         id="stop9983"
         style="stop-color:#fff6dd;stop-opacity:1"
         offset="0" />
      <stop
         id="stop9985"
         style="stop-color:#fef8f4;stop-opacity:1"
         offset="1" />
    </linearGradient>
    <linearGradient
       x1="529.25"
       y1="-1568.6378"
       x2="535"
       y2="-1574.6378"
       id="linearGradient16673"
       xlink:href="#linearGradient10216-3"
       gradientUnits="userSpaceOnUse"
       gradientTransform="matrix(2.5,0,0,6.33333,2347.5,8412.07)" />
    <linearGradient
       id="linearGradient10216-3">
      <stop
         id="stop10218-9"
         style="stop-color:#fc5c00;stop-opacity:1"
         offset="0" />
      <stop
         id="stop10220-6"
         style="stop-color:#cccccc;stop-opacity:0"
         offset="1" />
    </linearGradient>
    <linearGradient
       x1="3682"
       y1="-1515.0027"
       x2="3682"
       y2="-1494.8434"
       id="linearGradient22179"
       xlink:href="#linearGradient10303"
       gradientUnits="userSpaceOnUse"
       gradientTransform="matrix(1.01667,0,0,1.1,-62.1745,148.467)" />
    <linearGradient
       id="linearGradient10303">
      <stop
         id="stop10305"
         style="stop-color:#ffffff;stop-opacity:1"
         offset="0" />
      <stop
         id="stop10307"
         style="stop-color:#f2f2f2;stop-opacity:1"
         offset="1" />
    </linearGradient>
    <linearGradient
       x1="3669.4517"
       y1="-1068.8184"
       x2="3669.4517"
       y2="-1073.573"
       id="linearGradient22195"
       xlink:href="#linearGradient10412"
       gradientUnits="userSpaceOnUse" />
    <linearGradient
       id="linearGradient10412">
      <stop
         id="stop10414"
         style="stop-color:#000000;stop-opacity:1"
         offset="0" />
      <stop
         id="stop10416"
         style="stop-color:#4d4d4d;stop-opacity:1"
         offset="1" />
    </linearGradient>
    <linearGradient
       x1="3669.4517"
       y1="-1068.8184"
       x2="3669.4517"
       y2="-1073.573"
       id="linearGradient22181"
       xlink:href="#linearGradient10412"
       gradientUnits="userSpaceOnUse" />
    <linearGradient
       x1="3669.4517"
       y1="-1068.8184"
       x2="3669.4517"
       y2="-1073.573"
       id="linearGradient22183"
       xlink:href="#linearGradient10412"
       gradientUnits="userSpaceOnUse" />
    <linearGradient
       x1="3669.4517"
       y1="-1068.8184"
       x2="3669.4517"
       y2="-1073.573"
       id="linearGradient22185"
       xlink:href="#linearGradient10412"
       gradientUnits="userSpaceOnUse" />
    <linearGradient
       x1="3669.4517"
       y1="-1068.8184"
       x2="3669.4517"
       y2="-1073.573"
       id="linearGradient22187"
       xlink:href="#linearGradient10412"
       gradientUnits="userSpaceOnUse" />
    <linearGradient
       x1="3669.4517"
       y1="-1068.8184"
       x2="3669.4517"
       y2="-1073.573"
       id="linearGradient22189"
       xlink:href="#linearGradient10412"
       gradientUnits="userSpaceOnUse" />
    <linearGradient
       x1="3669.4517"
       y1="-1068.8184"
       x2="3669.4517"
       y2="-1073.573"
       id="linearGradient22191"
       xlink:href="#linearGradient10412"
       gradientUnits="userSpaceOnUse" />
    <linearGradient
       x1="3669.4517"
       y1="-1068.8184"
       x2="3669.4517"
       y2="-1073.573"
       id="linearGradient22193"
       xlink:href="#linearGradient10412"
       gradientUnits="userSpaceOnUse" />
    <linearGradient
       x1="529.25"
       y1="-1568.6378"
       x2="535"
       y2="-1574.6378"
       id="linearGradient23130"
       xlink:href="#linearGradient10216-3"
       gradientUnits="userSpaceOnUse"
       gradientTransform="matrix(2.5,0,0,6.33333,2347.5,8412.07)" />
    <linearGradient
       x1="3715.8936"
       y1="693.0368"
       x2="3715.8936"
       y2="695.84778"
       id="linearGradient22197"
       xlink:href="#linearGradient9860"
       gradientUnits="userSpaceOnUse"
       gradientTransform="matrix(12.0378,0,0,12.0329,-41007.4,-9931.87)" />
    <linearGradient
       id="linearGradient9860">
      <stop
         id="stop9862"
         style="stop-color:#666666;stop-opacity:1"
         offset="0" />
      <stop
         id="stop9864"
         style="stop-color:#808080;stop-opacity:1"
         offset="1" />
    </linearGradient>
    <linearGradient
       x1="3715.8936"
       y1="694.65692"
       x2="3715.8936"
       y2="696.49622"
       id="linearGradient22199"
       xlink:href="#linearGradient9860-2"
       gradientUnits="userSpaceOnUse"
       gradientTransform="matrix(12.0378,0,0,12.0329,-41007.4,-9931.87)" />
    <linearGradient
       id="linearGradient9860-2">
      <stop
         id="stop9862-6"
         style="stop-color:#666666;stop-opacity:1"
         offset="0" />
      <stop
         id="stop9864-1"
         style="stop-color:#808080;stop-opacity:1"
         offset="1" />
    </linearGradient>
    <linearGradient
       x1="-17"
       y1="-1194.6378"
       x2="144"
       y2="-1194.6378"
       id="linearGradient22201"
       xlink:href="#linearGradient10295"
       gradientUnits="userSpaceOnUse"
       gradientTransform="matrix(0.745342,0,0,1,3682.67,-329)" />
    <linearGradient
       id="linearGradient10295">
      <stop
         id="stop10297"
         style="stop-color:#e9b913;stop-opacity:0"
         offset="0" />
      <stop
         id="stop10299"
         style="stop-color:#fc5c00;stop-opacity:1"
         offset="0.49305555" />
      <stop
         id="stop10301"
         style="stop-color:#e9b913;stop-opacity:0"
         offset="1" />
    </linearGradient>
    <linearGradient
       x1="-17"
       y1="-1194.6378"
       x2="144"
       y2="-1194.6378"
       id="linearGradient16675"
       xlink:href="#linearGradient10341-4"
       gradientUnits="userSpaceOnUse"
       gradientTransform="matrix(0.459627,0,0,1,-1589.82,-2476.36)" />
    <linearGradient
       id="linearGradient10341-4">
      <stop
         id="stop10343-2"
         style="stop-color:#e9b913;stop-opacity:0"
         offset="0" />
      <stop
         id="stop10345-0"
         style="stop-color:#fc5c00;stop-opacity:1"
         offset="0.49305555" />
      <stop
         id="stop10347-2"
         style="stop-color:#e9b913;stop-opacity:0"
         offset="1" />
    </linearGradient>
    <linearGradient
       x1="-17"
       y1="-1194.6378"
       x2="144"
       y2="-1194.6378"
       id="linearGradient23156"
       xlink:href="#linearGradient10341-4"
       gradientUnits="userSpaceOnUse"
       gradientTransform="matrix(0.459627,0,0,1,-1589.82,-2476.36)" />
    <linearGradient
       x1="-17"
       y1="-1194.6378"
       x2="144"
       y2="-1194.6378"
       id="linearGradient16677-9"
       xlink:href="#linearGradient8074-2-5"
       gradientUnits="userSpaceOnUse"
       gradientTransform="matrix(0.482919,0,0,1,-1591.18,-2474.36)" />
    <linearGradient
       id="linearGradient8074-2-5">
      <stop
         id="stop8076-1-7"
         style="stop-color:#000000;stop-opacity:0"
         offset="0" />
      <stop
         id="stop8078-94-4"
         style="stop-color:#000000;stop-opacity:1"
         offset="0.49305555" />
      <stop
         id="stop8080-0-6"
         style="stop-color:#000000;stop-opacity:0"
         offset="1" />
    </linearGradient>
    <linearGradient
       x1="-17"
       y1="-1194.6378"
       x2="144"
       y2="-1194.6378"
       id="linearGradient23171"
       xlink:href="#linearGradient8074-2-5"
       gradientUnits="userSpaceOnUse"
       gradientTransform="matrix(0.482919,0,0,1,-1591.18,-2474.36)" />
    <linearGradient
       x1="-17"
       y1="-1194.6378"
       x2="144"
       y2="-1194.6378"
       id="linearGradient23181"
       xlink:href="#linearGradient8074-2-5"
       gradientUnits="userSpaceOnUse"
       gradientTransform="matrix(0.482919,0,0,1,-1591.18,-2474.36)" />
    <linearGradient
       x1="-17"
       y1="-1194.6378"
       x2="144"
       y2="-1194.6378"
       id="linearGradient23191"
       xlink:href="#linearGradient8074-2-5"
       gradientUnits="userSpaceOnUse"
       gradientTransform="matrix(0.482919,0,0,1,-1591.18,-2474.36)" />
    <linearGradient
       x1="-17"
       y1="-1194.6378"
       x2="144"
       y2="-1194.6378"
       id="linearGradient23201"
       xlink:href="#linearGradient8074-2-5"
       gradientUnits="userSpaceOnUse"
       gradientTransform="matrix(0.482919,0,0,1,-1591.18,-2474.36)" />
    <linearGradient
       x1="152"
       y1="-1192.6378"
       x2="113.88176"
       y2="-1230.7561"
       id="linearGradient16679"
       xlink:href="#linearGradient7931-2-4"
       gradientUnits="userSpaceOnUse"
       gradientTransform="matrix(0.243902,0,0,0.243902,3752.93,-1205.75)" />
    <linearGradient
       id="linearGradient7931-2-4">
      <stop
         id="stop7933-1-9"
         style="stop-color:#000000;stop-opacity:1"
         offset="0" />
      <stop
         id="stop7968-3-1"
         style="stop-color:#000000;stop-opacity:0.36078432"
         offset="0.45461464" />
      <stop
         id="stop7935-7-2"
         style="stop-color:#000000;stop-opacity:0"
         offset="1" />
    </linearGradient>
    <linearGradient
       x1="152"
       y1="-1192.6378"
       x2="113.88176"
       y2="-1230.7561"
       id="linearGradient23216"
       xlink:href="#linearGradient7931-2-4"
       gradientUnits="userSpaceOnUse"
       gradientTransform="matrix(0.243902,0,0,0.243902,3752.93,-1205.75)" />
    <linearGradient
       x1="-17"
       y1="-1194.6378"
       x2="144"
       y2="-1194.6378"
       id="linearGradient23226"
       xlink:href="#linearGradient8074-2-5"
       gradientUnits="userSpaceOnUse"
       gradientTransform="matrix(0.482919,0,0,1,-1591.18,-2474.36)" />
    <linearGradient
       x1="-17"
       y1="-1194.6378"
       x2="144"
       y2="-1194.6378"
       id="linearGradient23236"
       xlink:href="#linearGradient8074-2-5"
       gradientUnits="userSpaceOnUse"
       gradientTransform="matrix(0.482919,0,0,1,-1591.18,-2474.36)" />
    <linearGradient
       x1="364.8671"
       y1="300.81857"
       x2="389.10162"
       y2="276.58405"
       id="linearGradient16681"
       xlink:href="#linearGradient7303-9"
       gradientUnits="userSpaceOnUse"
       gradientTransform="translate(3301,-1793.64)" />
    <linearGradient
       id="linearGradient7303-9">
      <stop
         id="stop7305-0"
         style="stop-color:#000000;stop-opacity:1"
         offset="0" />
      <stop
         id="stop7307-6"
         style="stop-color:#000000;stop-opacity:0"
         offset="1" />
    </linearGradient>
    <linearGradient
       x1="364.8671"
       y1="300.81857"
       x2="389.10162"
       y2="276.58405"
       id="linearGradient23250"
       xlink:href="#linearGradient7303-9"
       gradientUnits="userSpaceOnUse"
       gradientTransform="translate(3301,-1793.64)" />
    <linearGradient
       x1="364.8671"
       y1="300.81857"
       x2="389.10162"
       y2="276.58405"
       id="linearGradient23258"
       xlink:href="#linearGradient7303-9"
       gradientUnits="userSpaceOnUse"
       gradientTransform="translate(3301,-1793.64)" />
    <linearGradient
       x1="364.8671"
       y1="300.81857"
       x2="389.10162"
       y2="276.58405"
       id="linearGradient23266"
       xlink:href="#linearGradient7303-9"
       gradientUnits="userSpaceOnUse"
       gradientTransform="translate(3301,-1793.64)" />
    <linearGradient
       x1="-17"
       y1="-1194.6378"
       x2="144"
       y2="-1194.6378"
       id="linearGradient16683"
       xlink:href="#linearGradient8074-2-5"
       gradientUnits="userSpaceOnUse"
       gradientTransform="matrix(0.136646,0,0,0.999984,-1515.31,-2474.38)" />
    <linearGradient
       x1="-17"
       y1="-1194.6378"
       x2="144"
       y2="-1194.6378"
       id="linearGradient23283"
       xlink:href="#linearGradient8074-2-5"
       gradientUnits="userSpaceOnUse"
       gradientTransform="matrix(0.136646,0,0,0.999984,-1515.31,-2474.38)" />
    <linearGradient
       x1="209.0625"
       y1="-754.08502"
       x2="209.0625"
       y2="-782.63782"
       id="linearGradient20936"
       xlink:href="#linearGradient7976"
       gradientUnits="userSpaceOnUse"
       gradientTransform="matrix(8,0,0,8,1980,4583.47)" />
    <linearGradient
       id="linearGradient7976">
      <stop
         id="stop7978"
         style="stop-color:#ffffff;stop-opacity:0.85000002"
         offset="0" />
      <stop
         id="stop7980"
         style="stop-color:#ffffff;stop-opacity:0.89999998"
         offset="1" />
    </linearGradient>
    <linearGradient
       x1="121.30617"
       y1="976.37823"
       x2="121.30617"
       y2="992.4245"
       id="linearGradient20944"
       xlink:href="#linearGradient10292-31"
       gradientUnits="userSpaceOnUse"
       gradientTransform="matrix(15.9995,0,0,15.9955,-1815.94,-17050.2)" />
    <linearGradient
       id="linearGradient10292-31">
      <stop
         id="stop10294-8"
         style="stop-color:#666666;stop-opacity:1"
         offset="0" />
      <stop
         id="stop10296-1"
         style="stop-color:#333333;stop-opacity:1"
         offset="1" />
    </linearGradient>
    <linearGradient
       x1="110.96875"
       y1="976.29968"
       x2="110.96875"
       y2="992.375"
       id="linearGradient20946"
       xlink:href="#linearGradient10292-31"
       gradientUnits="userSpaceOnUse"
       gradientTransform="matrix(16.0634,0,0,16.1473,-1839.92,-17198.3)" />
    <linearGradient
       x1="294.3429"
       y1="256.58133"
       x2="294.41818"
       y2="243.13852"
       id="linearGradient20954"
       xlink:href="#linearGradient7970"
       gradientUnits="userSpaceOnUse"
       gradientTransform="matrix(15.958,0,0,16.0248,-1037.13,-5573.42)" />
    <linearGradient
       id="linearGradient7970">
      <stop
         id="stop7972"
         style="stop-color:#999999;stop-opacity:1"
         offset="0" />
      <stop
         id="stop7974"
         style="stop-color:#e6e6e6;stop-opacity:1"
         offset="1" />
    </linearGradient>
    <linearGradient
       x1="209.0625"
       y1="-754.08502"
       x2="209.0625"
       y2="-782.63782"
       id="linearGradient20966"
       xlink:href="#linearGradient7976"
       gradientUnits="userSpaceOnUse"
       gradientTransform="matrix(8,0,0,8,1980,4583.47)" />
    <linearGradient
       id="linearGradient23313">
      <stop
         id="stop23315"
         style="stop-color:#ffffff;stop-opacity:0.85000002"
         offset="0" />
      <stop
         id="stop23317"
         style="stop-color:#ffffff;stop-opacity:0.89999998"
         offset="1" />
    </linearGradient>
    <linearGradient
       x1="152"
       y1="-1192.6378"
       x2="113.88176"
       y2="-1230.7561"
       id="linearGradient20984"
       xlink:href="#linearGradient7931"
       gradientUnits="userSpaceOnUse"
       gradientTransform="matrix(0.780488,0,0,0.780488,-3760.6341,-520.799)" />
    <linearGradient
       id="linearGradient7931">
      <stop
         id="stop7933"
         style="stop-color:#000000;stop-opacity:1"
         offset="0" />
      <stop
         id="stop7968"
         style="stop-color:#000000;stop-opacity:0.36078432"
         offset="0.45461464" />
      <stop
         id="stop7935"
         style="stop-color:#000000;stop-opacity:0"
         offset="1" />
    </linearGradient>
    <linearGradient
       x1="-17"
       y1="-1194.6378"
       x2="144"
       y2="-1194.6378"
       id="linearGradient20992"
       xlink:href="#linearGradient8074"
       gradientUnits="userSpaceOnUse"
       gradientTransform="matrix(0.621118,0,0,1,3691.559,-257)" />
    <linearGradient
       id="linearGradient8074">
      <stop
         id="stop8076"
         style="stop-color:#000000;stop-opacity:0"
         offset="0" />
      <stop
         id="stop8078"
         style="stop-color:#000000;stop-opacity:1"
         offset="0.49305555" />
      <stop
         id="stop8080"
         style="stop-color:#000000;stop-opacity:0"
         offset="1" />
    </linearGradient>
    <linearGradient
       x1="-17"
       y1="-1194.6378"
       x2="144"
       y2="-1194.6378"
       id="linearGradient21000"
       xlink:href="#linearGradient8074"
       gradientUnits="userSpaceOnUse"
       gradientTransform="matrix(1.41615,0,0,1,-1655.56,-2447.36)" />
    <linearGradient
       x1="-17"
       y1="-1194.6378"
       x2="144"
       y2="-1194.6378"
       id="linearGradient21008"
       xlink:href="#linearGradient8074"
       gradientUnits="userSpaceOnUse"
       gradientTransform="matrix(0.867106,0,0,1,-1578,-2634.36)" />
    <linearGradient
       x1="-17"
       y1="-1194.6378"
       x2="144"
       y2="-1194.6378"
       id="linearGradient21016"
       xlink:href="#linearGradient8074"
       gradientUnits="userSpaceOnUse"
       gradientTransform="matrix(0.621118,0,0,1,3691.559,-251)" />
    <linearGradient
       x1="364.8671"
       y1="300.81857"
       x2="389.10162"
       y2="276.58405"
       id="linearGradient21030"
       xlink:href="#linearGradient7303"
       gradientUnits="userSpaceOnUse"
       gradientTransform="translate(3278,-1753.64)" />
    <linearGradient
       id="linearGradient7303">
      <stop
         id="stop7305"
         style="stop-color:#000000;stop-opacity:1"
         offset="0" />
      <stop
         id="stop7307"
         style="stop-color:#000000;stop-opacity:0"
         offset="1" />
    </linearGradient>
    <linearGradient
       x1="364.8671"
       y1="300.81857"
       x2="389.10162"
       y2="276.58405"
       id="linearGradient21038"
       xlink:href="#linearGradient7303"
       gradientUnits="userSpaceOnUse"
       gradientTransform="matrix(1,0,0,-1,3276,-1379.64)" />
    <linearGradient
       x1="-17"
       y1="-1194.6378"
       x2="144"
       y2="-1194.6378"
       id="linearGradient21046"
       xlink:href="#linearGradient8074-2-5"
       gradientUnits="userSpaceOnUse"
       gradientTransform="matrix(0.52406816,0,0,1.0000003,1483.0173,-2642.6286)" />
    <linearGradient
       x1="-17"
       y1="-1194.6378"
       x2="144"
       y2="-1194.6378"
       id="linearGradient21054"
       xlink:href="#linearGradient8074-2-5"
       gradientUnits="userSpaceOnUse"
       gradientTransform="matrix(0.52406816,0,0,1.0000003,1482.3073,-2634.8504)" />
    <linearGradient
       x1="-17"
       y1="-1194.6378"
       x2="144"
       y2="-1194.6378"
       id="linearGradient21062"
       xlink:href="#linearGradient8074-2-5"
       gradientUnits="userSpaceOnUse"
       gradientTransform="matrix(0.52406816,0,0,1.0000003,1482.3073,-2663.1347)" />
    <linearGradient
       x1="-17"
       y1="-1194.6378"
       x2="144"
       y2="-1194.6378"
       id="linearGradient21070"
       xlink:href="#linearGradient8074"
       gradientUnits="userSpaceOnUse"
       gradientTransform="matrix(1.41615,0,0,1,-1655.56,-2441.36)" />
    <linearGradient
       x1="-17"
       y1="-1194.6378"
       x2="144"
       y2="-1194.6378"
       id="linearGradient21078"
       xlink:href="#linearGradient8074"
       gradientUnits="userSpaceOnUse"
       gradientTransform="matrix(0.899038,0,0,1,-1580.99,5016.64)" />
    <linearGradient
       x1="152"
       y1="-1192.6378"
       x2="113.88176"
       y2="-1230.7561"
       id="linearGradient21086"
       xlink:href="#linearGradient7931"
       gradientUnits="userSpaceOnUse"
       gradientTransform="matrix(0.780488,0,0,0.780488,3703.3659,-520.799)" />
    <linearGradient
       x1="364.8671"
       y1="300.81857"
       x2="389.10162"
       y2="276.58405"
       id="linearGradient21094"
       xlink:href="#linearGradient7303"
       gradientUnits="userSpaceOnUse"
       gradientTransform="matrix(-1,0,0,1,4186,-1753.64)" />
    <linearGradient
       x1="364.8671"
       y1="300.81857"
       x2="389.10162"
       y2="276.58405"
       id="linearGradient23509"
       xlink:href="#linearGradient7303"
       gradientUnits="userSpaceOnUse"
       gradientTransform="matrix(-1,0,0,1,4186,-1753.64)" />
    <linearGradient
       x1="529.25"
       y1="-1568.6378"
       x2="535"
       y2="-1574.6378"
       id="linearGradient24178"
       xlink:href="#linearGradient10216-3"
       gradientUnits="userSpaceOnUse"
       gradientTransform="matrix(2.5,0,0,6.33333,2347.5,8412.07)" />
    <linearGradient
       x1="3669.4517"
       y1="-1068.8184"
       x2="3669.4517"
       y2="-1073.573"
       id="linearGradient24180"
       xlink:href="#linearGradient10412"
       gradientUnits="userSpaceOnUse" />
    <linearGradient
       x1="-17"
       y1="-1194.6378"
       x2="144"
       y2="-1194.6378"
       id="linearGradient24182"
       xlink:href="#linearGradient10341-4"
       gradientUnits="userSpaceOnUse"
       gradientTransform="matrix(0.459627,0,0,1,-1589.82,-2476.36)" />
    <linearGradient
       x1="-17"
       y1="-1194.6378"
       x2="144"
       y2="-1194.6378"
       id="linearGradient24184"
       xlink:href="#linearGradient8074-2-5"
       gradientUnits="userSpaceOnUse"
       gradientTransform="matrix(0.482919,0,0,1,-1591.18,-2474.36)" />
    <linearGradient
       x1="152"
       y1="-1192.6378"
       x2="113.88176"
       y2="-1230.7561"
       id="linearGradient24186"
       xlink:href="#linearGradient7931-2-4"
       gradientUnits="userSpaceOnUse"
       gradientTransform="matrix(0.243902,0,0,0.243902,3752.93,-1205.75)" />
    <linearGradient
       x1="364.8671"
       y1="300.81857"
       x2="389.10162"
       y2="276.58405"
       id="linearGradient24188"
       xlink:href="#linearGradient7303-9"
       gradientUnits="userSpaceOnUse"
       gradientTransform="translate(3301,-1793.64)" />
    <linearGradient
       x1="-17"
       y1="-1194.6378"
       x2="144"
       y2="-1194.6378"
       id="linearGradient24190"
       xlink:href="#linearGradient8074-2-5"
       gradientUnits="userSpaceOnUse"
       gradientTransform="matrix(0.136646,0,0,0.999984,-1515.31,-2474.38)" />
    <linearGradient
       x1="209.0625"
       y1="-754.08502"
       x2="209.0625"
       y2="-782.63782"
       id="linearGradient24275"
       xlink:href="#linearGradient7976"
       gradientUnits="userSpaceOnUse"
       gradientTransform="matrix(8,0,0,8,1980,4583.47)" />
    <linearGradient
       x1="121.30617"
       y1="976.37823"
       x2="121.30617"
       y2="992.4245"
       id="linearGradient24277"
       xlink:href="#linearGradient10292-31"
       gradientUnits="userSpaceOnUse"
       gradientTransform="matrix(15.9995,0,0,15.9955,-1815.94,-17050.2)" />
    <linearGradient
       x1="110.96875"
       y1="976.29968"
       x2="110.96875"
       y2="992.375"
       id="linearGradient24279"
       xlink:href="#linearGradient10292-31"
       gradientUnits="userSpaceOnUse"
       gradientTransform="matrix(16.0634,0,0,16.1473,-1839.92,-17198.3)" />
    <linearGradient
       x1="294.3429"
       y1="256.58133"
       x2="294.41818"
       y2="243.13852"
       id="linearGradient24281"
       xlink:href="#linearGradient7970"
       gradientUnits="userSpaceOnUse"
       gradientTransform="matrix(15.958,0,0,16.0248,-1037.13,-5573.42)" />
    <linearGradient
       x1="209.0625"
       y1="-754.08502"
       x2="209.0625"
       y2="-782.63782"
       id="linearGradient24283"
       xlink:href="#linearGradient7976"
       gradientUnits="userSpaceOnUse"
       gradientTransform="matrix(8,0,0,8,1980,4583.47)" />
    <linearGradient
       x1="152"
       y1="-1192.6378"
       x2="113.88176"
       y2="-1230.7561"
       id="linearGradient24285"
       xlink:href="#linearGradient7931"
       gradientUnits="userSpaceOnUse"
       gradientTransform="matrix(0.780488,0,0,0.780488,-3760.6341,-520.799)" />
    <linearGradient
       x1="-17"
       y1="-1194.6378"
       x2="144"
       y2="-1194.6378"
       id="linearGradient24287"
       xlink:href="#linearGradient8074"
       gradientUnits="userSpaceOnUse"
       gradientTransform="matrix(0.621118,0,0,1,3691.559,-257)" />
    <linearGradient
       x1="-17"
       y1="-1194.6378"
       x2="144"
       y2="-1194.6378"
       id="linearGradient24289"
       xlink:href="#linearGradient8074"
       gradientUnits="userSpaceOnUse"
       gradientTransform="matrix(1.41615,0,0,1,-1655.56,-2447.36)" />
    <linearGradient
       x1="-17"
       y1="-1194.6378"
       x2="144"
       y2="-1194.6378"
       id="linearGradient24291"
       xlink:href="#linearGradient8074"
       gradientUnits="userSpaceOnUse"
       gradientTransform="matrix(0.867106,0,0,1,-1578,-2634.36)" />
    <linearGradient
       x1="-17"
       y1="-1194.6378"
       x2="144"
       y2="-1194.6378"
       id="linearGradient24293"
       xlink:href="#linearGradient8074"
       gradientUnits="userSpaceOnUse"
       gradientTransform="matrix(0.621118,0,0,1,3691.559,-251)" />
    <linearGradient
       x1="364.8671"
       y1="300.81857"
       x2="389.10162"
       y2="276.58405"
       id="linearGradient24295"
       xlink:href="#linearGradient7303"
       gradientUnits="userSpaceOnUse"
       gradientTransform="translate(3278,-1753.64)" />
    <linearGradient
       x1="364.8671"
       y1="300.81857"
       x2="389.10162"
       y2="276.58405"
       id="linearGradient24297"
       xlink:href="#linearGradient7303"
       gradientUnits="userSpaceOnUse"
       gradientTransform="matrix(1,0,0,-1,3276,-1379.64)" />
    <linearGradient
       x1="-17"
       y1="-1194.6378"
       x2="144"
       y2="-1194.6378"
       id="linearGradient24299"
       xlink:href="#linearGradient8074-2-5"
       gradientUnits="userSpaceOnUse"
       gradientTransform="matrix(0.52406816,0,0,1.0000003,1483.0173,-2642.6286)" />
    <linearGradient
       x1="-17"
       y1="-1194.6378"
       x2="144"
       y2="-1194.6378"
       id="linearGradient24301"
       xlink:href="#linearGradient8074-2-5"
       gradientUnits="userSpaceOnUse"
       gradientTransform="matrix(0.52406816,0,0,1.0000003,1482.3073,-2634.8504)" />
    <linearGradient
       x1="-17"
       y1="-1194.6378"
       x2="144"
       y2="-1194.6378"
       id="linearGradient24303"
       xlink:href="#linearGradient8074-2-5"
       gradientUnits="userSpaceOnUse"
       gradientTransform="matrix(0.52406816,0,0,1.0000003,1482.3073,-2663.1347)" />
    <linearGradient
       x1="-17"
       y1="-1194.6378"
       x2="144"
       y2="-1194.6378"
       id="linearGradient24305"
       xlink:href="#linearGradient8074"
       gradientUnits="userSpaceOnUse"
       gradientTransform="matrix(1.41615,0,0,1,-1655.56,-2441.36)" />
    <linearGradient
       x1="-17"
       y1="-1194.6378"
       x2="144"
       y2="-1194.6378"
       id="linearGradient24307"
       xlink:href="#linearGradient8074"
       gradientUnits="userSpaceOnUse"
       gradientTransform="matrix(0.899038,0,0,1,-1580.99,5016.64)" />
    <linearGradient
       x1="152"
       y1="-1192.6378"
       x2="113.88176"
       y2="-1230.7561"
       id="linearGradient24309"
       xlink:href="#linearGradient7931"
       gradientUnits="userSpaceOnUse"
       gradientTransform="matrix(0.780488,0,0,0.780488,3703.3659,-520.799)" />
    <linearGradient
       x1="364.8671"
       y1="300.81857"
       x2="389.10162"
       y2="276.58405"
       id="linearGradient24311"
       xlink:href="#linearGradient7303"
       gradientUnits="userSpaceOnUse"
       gradientTransform="matrix(-1,0,0,1,4186,-1753.64)" />
    <linearGradient
       x1="815.12506"
       y1="-1491.6379"
       x2="815.12506"
       y2="-1543.6378"
       id="linearGradient24313"
       xlink:href="#linearGradient10478"
       gradientUnits="userSpaceOnUse"
       gradientTransform="matrix(1.64102,0,0,0.500001,2374.52,-746.817)" />
    <linearGradient
       x1="3793.25"
       y1="-1603.6466"
       x2="3793.25"
       y2="-1561.3872"
       id="linearGradient24315"
       xlink:href="#linearGradient10331"
       gradientUnits="userSpaceOnUse" />
    <linearGradient
       x1="3658.22"
       y1="-1076.6246"
       x2="3658.22"
       y2="-1117.8441"
       id="linearGradient24317"
       xlink:href="#linearGradient9981"
       gradientUnits="userSpaceOnUse"
       gradientTransform="matrix(1.90625,0,0,1.85714,-3264.03,477.832)" />
    <linearGradient
       x1="3682"
       y1="-1515.0027"
       x2="3682"
       y2="-1494.8434"
       id="linearGradient24321"
       xlink:href="#linearGradient10303"
       gradientUnits="userSpaceOnUse"
       gradientTransform="matrix(1.01667,0,0,1.1,-62.1745,148.467)" />
    <linearGradient
       x1="3669.4517"
       y1="-1068.8184"
       x2="3669.4517"
       y2="-1073.573"
       id="linearGradient24323"
       xlink:href="#linearGradient10412"
       gradientUnits="userSpaceOnUse" />
    <linearGradient
       x1="3669.4517"
       y1="-1068.8184"
       x2="3669.4517"
       y2="-1073.573"
       id="linearGradient24325"
       xlink:href="#linearGradient10412"
       gradientUnits="userSpaceOnUse" />
    <linearGradient
       x1="3669.4517"
       y1="-1068.8184"
       x2="3669.4517"
       y2="-1073.573"
       id="linearGradient24327"
       xlink:href="#linearGradient10412"
       gradientUnits="userSpaceOnUse" />
    <linearGradient
       x1="3669.4517"
       y1="-1068.8184"
       x2="3669.4517"
       y2="-1073.573"
       id="linearGradient24329"
       xlink:href="#linearGradient10412"
       gradientUnits="userSpaceOnUse" />
    <linearGradient
       x1="3669.4517"
       y1="-1068.8184"
       x2="3669.4517"
       y2="-1073.573"
       id="linearGradient24331"
       xlink:href="#linearGradient10412"
       gradientUnits="userSpaceOnUse" />
    <linearGradient
       x1="3669.4517"
       y1="-1068.8184"
       x2="3669.4517"
       y2="-1073.573"
       id="linearGradient24333"
       xlink:href="#linearGradient10412"
       gradientUnits="userSpaceOnUse" />
    <linearGradient
       x1="3669.4517"
       y1="-1068.8184"
       x2="3669.4517"
       y2="-1073.573"
       id="linearGradient24335"
       xlink:href="#linearGradient10412"
       gradientUnits="userSpaceOnUse" />
    <linearGradient
       x1="3669.4517"
       y1="-1068.8184"
       x2="3669.4517"
       y2="-1073.573"
       id="linearGradient24337"
       xlink:href="#linearGradient10412"
       gradientUnits="userSpaceOnUse" />
    <linearGradient
       x1="3715.8936"
       y1="693.0368"
       x2="3715.8936"
       y2="695.84778"
       id="linearGradient24339"
       xlink:href="#linearGradient9860"
       gradientUnits="userSpaceOnUse"
       gradientTransform="matrix(12.0378,0,0,12.0329,-41007.4,-9931.87)" />
    <linearGradient
       x1="3715.8936"
       y1="694.65692"
       x2="3715.8936"
       y2="696.49622"
       id="linearGradient24341"
       xlink:href="#linearGradient9860-2"
       gradientUnits="userSpaceOnUse"
       gradientTransform="matrix(12.0378,0,0,12.0329,-41007.4,-9931.87)" />
    <linearGradient
       x1="-17"
       y1="-1194.6378"
       x2="144"
       y2="-1194.6378"
       id="linearGradient24343"
       xlink:href="#linearGradient10295"
       gradientUnits="userSpaceOnUse"
       gradientTransform="matrix(0.745342,0,0,1,3682.67,-329)" />
    <linearGradient
       x1="529.25"
       y1="-1568.6378"
       x2="535"
       y2="-1574.6378"
       id="linearGradient24391"
       xlink:href="#linearGradient10216-3"
       gradientUnits="userSpaceOnUse"
       gradientTransform="matrix(2.5,0,0,6.33333,2347.5,8412.07)" />
    <linearGradient
       x1="-17"
       y1="-1194.6378"
       x2="144"
       y2="-1194.6378"
       id="linearGradient24393"
       xlink:href="#linearGradient10341-4"
       gradientUnits="userSpaceOnUse"
       gradientTransform="matrix(0.459627,0,0,1,-1589.82,-2476.36)" />
    <linearGradient
       x1="-17"
       y1="-1194.6378"
       x2="144"
       y2="-1194.6378"
       id="linearGradient24395"
       xlink:href="#linearGradient8074-2-5"
       gradientUnits="userSpaceOnUse"
       gradientTransform="matrix(0.482919,0,0,1,-1591.18,-2474.36)" />
    <linearGradient
       x1="152"
       y1="-1192.6378"
       x2="113.88176"
       y2="-1230.7561"
       id="linearGradient24397"
       xlink:href="#linearGradient7931-2-4"
       gradientUnits="userSpaceOnUse"
       gradientTransform="matrix(0.243902,0,0,0.243902,3752.93,-1205.75)" />
    <linearGradient
       x1="364.8671"
       y1="300.81857"
       x2="389.10162"
       y2="276.58405"
       id="linearGradient24399"
       xlink:href="#linearGradient7303-9"
       gradientUnits="userSpaceOnUse"
       gradientTransform="translate(3301,-1793.64)" />
    <linearGradient
       x1="-17"
       y1="-1194.6378"
       x2="144"
       y2="-1194.6378"
       id="linearGradient24401"
       xlink:href="#linearGradient8074-2-5"
       gradientUnits="userSpaceOnUse"
       gradientTransform="matrix(0.136646,0,0,0.999984,-1515.31,-2474.38)" />
  </defs>
  <metadata
     id="metadata15997">
    <rdf:RDF>
      <cc:Work
         rdf:about="">
        <dc:format>image/svg+xml</dc:format>
        <dc:type
           rdf:resource="http://purl.org/dc/dcmitype/StillImage" />
        <dc:title></dc:title>
      </cc:Work>
    </rdf:RDF>
  </metadata>
  <g
     transform="translate(0,-796.3622)"
     id="layer1">
    <use
       transform="matrix(0,0.999984,-0.771704,0,-1071.131,-3636.6024)"
       id="use10617"
       style="opacity:0.5;display:inline"
       x="0"
       y="0"
       width="5033"
       height="1085"
       xlink:href="#rect10352" />
    <rect
       width="54"
       height="1"
       x="1785.4797"
       y="-289.11905"
       transform="matrix(0,1,-1,0,0,0)"
       id="use10691"
       style="opacity:0.5;color:#000000;fill:url(#linearGradient22792);fill-opacity:1;fill-rule:nonzero;stroke:none;stroke-width:1;marker:none;visibility:visible;display:inline;overflow:visible;enable-background:accumulate" />
    <rect
       width="20"
       height="36"
       rx="1"
       ry="1"
       x="-40.119045"
       y="1787.9799"
       transform="scale(-1,1)"
       id="use10697"
       style="opacity:0.25;color:#000000;fill:url(#linearGradient22784);fill-opacity:1;fill-rule:nonzero;stroke:none;stroke-width:15.99663925;marker:none;visibility:visible;display:inline;overflow:visible;enable-background:accumulate" />
    <rect
       width="38"
       height="1"
       x="1786.9797"
       y="-286.11905"
       transform="matrix(0,1,-1,0,0,0)"
       id="use10693"
       style="opacity:0.5;color:#000000;fill:url(#linearGradient22788);fill-opacity:1;fill-rule:nonzero;stroke:none;stroke-width:1;marker:none;visibility:visible;display:inline;overflow:visible;enable-background:accumulate" />
    <rect
       width="8"
       height="8"
       x="9.8809528"
       y="1828.9797"
       transform="scale(-1,1)"
       id="use10967"
       style="opacity:0.25;color:#000000;fill:url(#linearGradient22796);fill-opacity:1;fill-rule:nonzero;stroke:none;stroke-width:2;marker:none;visibility:visible;display:inline;overflow:visible;enable-background:accumulate" />
    <g
       transform="translate(135.71429,-70.857127)"
       id="g24192">
      <g
         transform="translate(-3739.714,2560.8575)"
         id="g22150"
         style="display:inline">
        <path
           d="m 3642,-1677.5312 c 0,75.3333 0,150.6666 0,226 60,0 120,-1e-4 180,0 0,-46.8126 0,-93.625 0,-140.4376 -28.9856,-29.2017 -58.0779,-58.2982 -87,-87.5624 -31,-1e-4 -62,0 -93,0 l 0,1 0,1 z"
           id="use16598"
           style="fill:url(#linearGradient24275);fill-opacity:1;stroke:none;display:inline" />
        <g
           transform="matrix(1.00001,0,0,0.999844,3667.9939,-261.184)"
           id="use16600">
          <path
             d="m -39.993353,-1184.5675 c 0,3.8673 3.622442,7.9298 7.756866,7.9298 l 191.986687,0 c 4.62705,0 8.24949,-3.8705 8.24949,-7.7455 l 0,-149.2144 c 0,-4.2249 -0.51199,-6.1833 -3.49989,-9.171 l -85.323928,-85.2984 c -2.988223,-2.9873 -5.273683,-4.5274 -9.499625,-4.5307 l -101.735939,-0.08 c -4.133464,0 -7.933661,3.6832 -7.933661,8.1221 z"
             id="path20940"
             style="font-size:medium;font-style:normal;font-variant:normal;font-weight:normal;font-stretch:normal;text-indent:0pt;text-align:start;text-decoration:none;line-height:normal;letter-spacing:normal;word-spacing:normal;text-transform:none;direction:ltr;text-anchor:start;color:#000000;fill:url(#linearGradient24277);fill-opacity:1;stroke:none;stroke-width:2;marker:none;visibility:visible;display:inline;overflow:visible;font-family:Andale Mono" />
          <path
             d="m 103.25988,-1421.8904 53.19027,53.4419 c 4.33857,4.3589 11.55354,3.3243 11.55354,-3.5507 l 0,-52.4417 c 0,-4.2273 -3.82644,-8.1968 -8.03174,-8.1968 l -53.19026,0 c -6.837537,0 -7.137368,7.1146 -3.52181,10.7473 z"
             id="path20942"
             style="font-size:medium;font-style:normal;font-variant:normal;font-weight:normal;font-stretch:normal;text-indent:0pt;text-align:start;text-decoration:none;line-height:normal;letter-spacing:normal;word-spacing:normal;text-transform:none;direction:ltr;text-anchor:start;color:#000000;fill:url(#linearGradient24279);fill-opacity:1;fill-rule:nonzero;stroke:none;stroke-width:1;marker:none;visibility:visible;display:inline;overflow:visible;font-family:Andale Mono" />
        </g>
        <path
           d="m 3636,-1683.6378 c 0,79.3333 0,158.6666 0,238 64,0 128,0 192,0 0,-50.4688 0,-100.9375 0,-151.4063 -29.3831,-29.5023 -58.7452,-59.0265 -88.0625,-88.5937 -34.6458,-10e-5 -69.2917,0 -103.9375,0 l 0,1 0,1 z"
           id="use16602"
           style="font-size:medium;font-style:normal;font-variant:normal;font-weight:normal;font-stretch:normal;text-indent:0;text-align:start;text-decoration:none;line-height:normal;letter-spacing:normal;word-spacing:normal;text-transform:none;direction:ltr;block-progression:tb;writing-mode:lr-tb;text-anchor:start;color:#000000;fill:url(#linearGradient24281);fill-opacity:1;fill-rule:nonzero;stroke:none;stroke-width:1;marker:none;visibility:visible;display:inline;overflow:visible;enable-background:accumulate;font-family:Andale Mono;-inkscape-font-specification:Andale Mono" />
        <path
           d="m 3642,-1677.5312 c 0,75.3333 0,150.6666 0,226 60,0 120,-1e-4 180,0 0,-46.8126 0,-93.625 0,-140.4376 -28.9856,-29.2017 -58.0779,-58.2982 -87,-87.5624 -31,-1e-4 -62,0 -93,0 l 0,1 0,1 z"
           id="use16604"
           style="fill:url(#linearGradient24283);fill-opacity:1;stroke:none;display:inline" />
        <path
           d="m 3636,-1685.6378 0,1 0,1 0,238 192,0 0,-151.4063 c -29.3831,-29.5023 -58.7452,-59.0265 -88.0625,-88.5937 -34.6458,-10e-5 -69.2917,0 -103.9375,0 z m 1,1 c 34.1667,0 68.3333,-10e-5 102.5,0 29.1482,29.3621 58.2957,58.7249 87.5,88.0312 l 0,149.9688 c -63.3333,0 -126.6667,-10e-5 -190,0 l 0,-237 0,-1 z"
           id="use16606"
           style="font-size:medium;font-style:normal;font-variant:normal;font-weight:normal;font-stretch:normal;text-indent:0;text-align:start;text-decoration:none;line-height:normal;letter-spacing:normal;word-spacing:normal;text-transform:none;direction:ltr;block-progression:tb;writing-mode:lr-tb;text-anchor:start;opacity:0.15;color:#000000;fill:#ffffff;fill-opacity:1;fill-rule:nonzero;stroke:none;stroke-width:1;marker:none;visibility:visible;display:inline;overflow:visible;enable-background:accumulate;font-family:Andale Mono;-inkscape-font-specification:Andale Mono" />
        <rect
           width="64"
           height="64"
           x="-3706"
           y="-1515.6378"
           transform="scale(-1,1)"
           id="use16608"
           style="opacity:0.15;color:#000000;fill:url(#linearGradient24285);fill-opacity:1;fill-rule:nonzero;stroke:none;stroke-width:2;marker:none;visibility:visible;display:inline;overflow:visible;enable-background:accumulate" />
        <rect
           width="100"
           height="1.0000159"
           x="3681"
           y="-1451.6378"
           id="use16610"
           style="opacity:0.2;color:#000000;fill:url(#linearGradient24287);fill-opacity:1;fill-rule:nonzero;stroke:none;stroke-width:1;marker:none;visibility:visible;display:inline;overflow:visible;enable-background:accumulate" />
        <rect
           width="228"
           height="1.0000159"
           x="-1679.6378"
           y="-3642"
           transform="matrix(0,1,-1,0,0,0)"
           id="use16612"
           style="opacity:0.2;color:#000000;fill:url(#linearGradient24289);fill-opacity:1;fill-rule:nonzero;stroke:none;stroke-width:1;marker:none;visibility:visible;display:inline;overflow:visible;enable-background:accumulate" />
        <rect
           width="139.60402"
           height="1.0000159"
           x="-1592.7418"
           y="-3829"
           transform="matrix(0,1,-1,0,0,0)"
           id="use16614"
           style="opacity:0.5;color:#000000;fill:url(#linearGradient24291);fill-opacity:1;fill-rule:nonzero;stroke:none;stroke-width:1;marker:none;visibility:visible;display:inline;overflow:visible;enable-background:accumulate" />
        <rect
           width="100"
           height="1.0000159"
           x="3681"
           y="-1445.6378"
           id="use16616"
           style="opacity:0.5;color:#000000;fill:url(#linearGradient24293);fill-opacity:1;fill-rule:nonzero;stroke:none;stroke-width:1;marker:none;visibility:visible;display:inline;overflow:visible;enable-background:accumulate" />
        <path
           d="m 3643,-1502.6378 0,49 0,1 1,0 49,0 0,-1 -49,0 0,-49 -1,0 z"
           id="use16618"
           style="opacity:0.15;color:#000000;fill:url(#linearGradient24295);fill-opacity:1;fill-rule:nonzero;stroke:none;stroke-width:2;marker:none;visibility:visible;display:inline;overflow:visible;enable-background:accumulate" />
        <path
           d="m 3641,-1630.6378 0,-49 0,-1 1,0 49,0 0,1 -49,0 0,49 -1,0 z"
           id="use16620"
           style="opacity:0.1;color:#000000;fill:url(#linearGradient24297);fill-opacity:1;fill-rule:nonzero;stroke:none;stroke-width:2;marker:none;visibility:visible;display:inline;overflow:visible;enable-background:accumulate" />
        <rect
           width="84.375023"
           height="1.0000162"
           x="1474.1056"
           y="-3837.2668"
           transform="matrix(0.70710678,0.70710678,-0.70710678,0.70710678,0,0)"
           id="use16622"
           style="opacity:0.4;color:#000000;fill:url(#linearGradient24299);fill-opacity:1;fill-rule:nonzero;stroke:none;stroke-width:1;marker:none;visibility:visible;display:inline;overflow:visible;enable-background:accumulate" />
        <rect
           width="84.375023"
           height="1.0000162"
           x="1473.3984"
           y="-3829.4885"
           transform="matrix(0.70710678,0.70710678,-0.70710678,0.70710678,0,0)"
           id="use16624"
           style="opacity:0.1;color:#000000;fill:url(#linearGradient24301);fill-opacity:1;fill-rule:nonzero;stroke:none;stroke-width:1;marker:none;visibility:visible;display:inline;overflow:visible;enable-background:accumulate" />
        <rect
           width="84.375023"
           height="1.0000162"
           x="1473.3984"
           y="-3857.7732"
           transform="matrix(0.70710678,0.70710678,-0.70710678,0.70710678,0,0)"
           id="use16626"
           style="opacity:0.4;color:#000000;fill:url(#linearGradient24303);fill-opacity:1;fill-rule:nonzero;stroke:none;stroke-width:1;marker:none;visibility:visible;display:inline;overflow:visible;enable-background:accumulate" />
        <rect
           width="228"
           height="1.0000159"
           x="-1679.6378"
           y="-3636"
           transform="matrix(0,1,-1,0,0,0)"
           id="use16628"
           style="opacity:0.5;color:#000000;fill:url(#linearGradient24305);fill-opacity:1;fill-rule:nonzero;stroke:none;stroke-width:1;marker:none;visibility:visible;display:inline;overflow:visible;enable-background:accumulate" />
        <rect
           width="144.74516"
           height="1.0000159"
           x="-1596.2764"
           y="3822"
           transform="matrix(0,1,1,0,0,0)"
           id="use16630"
           style="opacity:0.2;color:#000000;fill:url(#linearGradient24307);fill-opacity:1;fill-rule:nonzero;stroke:none;stroke-width:1;marker:none;visibility:visible;display:inline;overflow:visible;enable-background:accumulate" />
        <rect
           width="64"
           height="64"
           x="3758"
           y="-1515.6378"
           id="use16632"
           style="opacity:0.15;color:#000000;fill:url(#linearGradient24309);fill-opacity:1;fill-rule:nonzero;stroke:none;stroke-width:2;marker:none;visibility:visible;display:inline;overflow:visible;enable-background:accumulate" />
        <path
           d="m 3821,-1502.6378 0,49 0,1 -1,0 -49,0 0,-1 49,0 0,-49 1,0 z"
           id="use16634"
           style="opacity:0.15;color:#000000;fill:url(#linearGradient24311);fill-opacity:1;fill-rule:nonzero;stroke:none;stroke-width:2;marker:none;visibility:visible;display:inline;overflow:visible;enable-background:accumulate" />
      </g>
      <g
         transform="translate(-3739.714,2560.8575)"
         id="g22069"
         style="display:inline">
        <rect
           width="127.99977"
           height="28.000038"
           x="3666"
           y="-1518.6379"
           id="rect10395"
           style="opacity:0.15;color:#000000;fill:#000000;fill-opacity:1;fill-rule:nonzero;stroke:none;stroke-width:1;marker:none;visibility:visible;display:inline;overflow:visible;enable-background:accumulate" />
        <rect
           width="127.99977"
           height="28.000038"
           x="3666"
           y="-1520.6379"
           id="use8350"
           style="color:#000000;fill:url(#linearGradient24313);fill-opacity:1;fill-rule:nonzero;stroke:none;stroke-width:1;marker:none;visibility:visible;display:inline;overflow:visible;enable-background:accumulate" />
        <rect
           width="127.99978"
           height="83.999855"
           x="3666"
           y="-1602.6378"
           id="rect8352"
           style="color:#000000;fill:url(#linearGradient24315);fill-opacity:1;fill-rule:nonzero;stroke:none;stroke-width:1;marker:none;visibility:visible;display:inline;overflow:visible;enable-background:accumulate" />
        <rect
           width="122"
           height="78"
           rx="1"
           ry="1"
           x="3669"
           y="-1599.6379"
           id="rect9908"
           style="color:#000000;fill:url(#linearGradient24317);fill-opacity:1;fill-rule:nonzero;stroke:none;stroke-width:1;marker:none;visibility:visible;display:inline;overflow:visible;enable-background:accumulate" />
        <rect
           width="30"
           height="76"
           rx="2"
           ry="1.9999999"
           x="3670"
           y="-1598.6378"
           id="rect10222"
           style="opacity:0.25;color:#000000;fill:url(#linearGradient24391);fill-opacity:1;fill-rule:nonzero;stroke:none;stroke-width:15.99663925;marker:none;visibility:visible;display:inline;overflow:visible;enable-background:accumulate" />
        <rect
           width="122"
           height="22"
           x="3669"
           y="-1517.6379"
           id="rect8354"
           style="color:#000000;fill:url(#linearGradient24321);fill-opacity:1;fill-rule:nonzero;stroke:none;stroke-width:1;marker:none;visibility:visible;display:inline;overflow:visible;enable-background:accumulate" />
        <g
           transform="matrix(2.0003,0,0,2,-3609.1,631.134)"
           id="g9965"
           style="font-size:8.76535797px;font-style:normal;font-variant:normal;font-weight:normal;font-stretch:normal;fill:#ffffff;fill-opacity:1;stroke:none;font-family:Courier 10 Pitch;-inkscape-font-specification:Courier 10 Pitch">
          <path
             d="m 3655.2528,-1071.3549 0,0.7704 c -0.2254,-0.1313 -0.4523,-0.2297 -0.6805,-0.2953 -0.2283,-0.066 -0.4608,-0.099 -0.6977,-0.099 -0.3566,0 -0.6234,0.059 -0.8003,0.1755 -0.1741,0.1141 -0.2611,0.2896 -0.2611,0.5264 0,0.214 0.066,0.3738 0.1969,0.4794 0.1312,0.1056 0.4579,0.2083 0.9801,0.3082 l 0.3167,0.06 c 0.3909,0.074 0.6862,0.2225 0.886,0.4451 0.2025,0.2225 0.3038,0.5122 0.3038,0.8688 0,0.4737 -0.1683,0.8446 -0.505,1.1128 -0.3367,0.2654 -0.8046,0.398 -1.4038,0.398 -0.2369,0 -0.4851,-0.026 -0.7447,-0.077 -0.2597,-0.049 -0.5407,-0.1227 -0.8432,-0.2225 l 0,-0.8132 c 0.2939,0.1512 0.575,0.2653 0.8432,0.3424 0.2682,0.074 0.5221,0.1112 0.7618,0.1112 0.3481,0 0.6177,-0.07 0.8089,-0.2097 0.1912,-0.1426 0.2868,-0.341 0.2868,-0.5949 0,-0.3652 -0.3496,-0.6177 -1.0486,-0.7576 l -0.034,-0.01 -0.2953,-0.06 c -0.4537,-0.089 -0.7846,-0.2369 -0.9929,-0.4451 -0.2083,-0.2112 -0.3125,-0.4979 -0.3125,-0.8603 0,-0.4594 0.1555,-0.8132 0.4665,-1.0614 0.3111,-0.2511 0.7547,-0.3767 1.3311,-0.3767 0.2568,0 0.5036,0.024 0.7404,0.073 0.2369,0.046 0.4694,0.1155 0.6977,0.2097"
             id="path9967"
             style="fill:#ffffff;font-family:DejaVu Sans Mono;-inkscape-font-specification:DejaVu Sans Mono" />
          <path
             d="m 3657.8135,-1069.1036 c 0,0.6106 0.096,1.0714 0.2867,1.3824 0.1941,0.311 0.4808,0.4665 0.8603,0.4665 0.3795,0 0.6663,-0.1555 0.8603,-0.4665 0.1969,-0.3139 0.2953,-0.7747 0.2953,-1.3824 0,-0.6078 -0.098,-1.0672 -0.2953,-1.3782 -0.194,-0.3139 -0.4808,-0.4708 -0.8603,-0.4708 -0.3795,0 -0.6662,0.1555 -0.8603,0.4665 -0.1911,0.311 -0.2867,0.7718 -0.2867,1.3825 m 2.3026,1.7804 c -0.1284,0.2368 -0.3024,0.4195 -0.5222,0.5478 -0.2168,0.1256 -0.4693,0.1884 -0.7575,0.1884 -0.5735,0 -1.0272,-0.2212 -1.361,-0.6634 -0.331,-0.4451 -0.4965,-1.0572 -0.4965,-1.8361 0,-0.7932 0.1655,-1.4138 0.4965,-1.8618 0.331,-0.448 0.7846,-0.672 1.361,-0.672 0.2853,0 0.5364,0.063 0.7533,0.1884 0.2197,0.1226 0.3951,0.3024 0.5264,0.5392 l 0,-0.612 0.7918,0 0,6.6168 -0.7918,0 0,-2.4353"
             id="path9969"
             style="fill:#ffffff;font-family:DejaVu Sans Mono;-inkscape-font-specification:DejaVu Sans Mono" />
          <path
             d="m 3666.5463,-1070.4394 c -0.1683,-0.1313 -0.3395,-0.2268 -0.5136,-0.2868 -0.174,-0.06 -0.3652,-0.09 -0.5735,-0.09 -0.4908,0 -0.866,0.154 -1.1256,0.4622 -0.2597,0.3082 -0.3895,0.7533 -0.3895,1.3353 l 0,2.384 -0.7918,0 0,-4.7936 0.7918,0 0,0.9373 c 0.1312,-0.3395 0.3324,-0.5992 0.6035,-0.7789 0.2739,-0.1826 0.5977,-0.2739 0.9715,-0.2739 0.194,0 0.3752,0.024 0.5436,0.073 0.1683,0.049 0.3295,0.1241 0.4836,0.2269 l 0,0.8046"
             id="path9971"
             style="fill:#ffffff;font-family:DejaVu Sans Mono;-inkscape-font-specification:DejaVu Sans Mono" />
          <path
             d="m 3669.8788,-1072.7579 0,1.3611 1.789,0 0,0.612 -1.789,0 0,2.6022 c 0,0.3538 0.067,0.6006 0.2011,0.7405 0.1341,0.1398 0.3681,0.2097 0.7019,0.2097 l 0.886,0 0,0.6291 -0.963,0 c -0.5906,0 -1.0072,-0.1184 -1.2498,-0.3552 -0.2425,-0.2368 -0.3638,-0.6449 -0.3638,-1.2241 l 0,-2.6022 -1.2797,0 0,-0.612 1.2797,0 0,-1.3611 0.7876,0"
             id="path9973"
             style="fill:#ffffff;font-family:DejaVu Sans Mono;-inkscape-font-specification:DejaVu Sans Mono" />
          <path
             d="m 3677.1676,-1066.1651 0,0.6163 -0.2739,0 c -0.7105,0 -1.187,-0.1055 -1.4295,-0.3167 -0.2397,-0.2111 -0.3596,-0.632 -0.3595,-1.2626 l 0,-1.0229 c -10e-5,-0.4308 -0.077,-0.729 -0.2312,-0.8945 -0.1512,-0.1655 -0.4265,-0.2482 -0.826,-0.2482 l -0.2654,0 0,-0.6121 0.2654,0 c 0.4023,0 0.6791,-0.081 0.8303,-0.2439 0.1512,-0.1627 0.2268,-0.458 0.2269,-0.886 l 0,-1.0272 c -10e-5,-0.6305 0.1198,-1.05 0.3595,-1.2583 0.2425,-0.2111 0.719,-0.3167 1.4295,-0.3167 l 0.2739,0 0,0.612 -0.2996,0 c -0.3995,1e-4 -0.6606,0.063 -0.7832,0.1884 -0.1199,0.1227 -0.1798,0.3866 -0.1798,0.7918 l 0,1.0614 c 0,0.448 -0.066,0.7732 -0.1969,0.9758 -0.1284,0.2026 -0.3495,0.3396 -0.6634,0.4109 0.3167,0.077 0.5393,0.2168 0.6677,0.4194 0.1284,0.2026 0.1926,0.5265 0.1926,0.9716 l 0,1.0614 c 0,0.408 0.06,0.6734 0.1798,0.7961 0.1226,0.1227 0.3837,0.184 0.7832,0.184 l 0.2996,0"
             id="path9975"
             style="fill:#ffffff;font-family:DejaVu Sans Mono;-inkscape-font-specification:DejaVu Sans Mono" />
          <path
             d="m 3682.5192,-1071.5218 -1.7163,2.294 1.8832,2.4995 -0.9116,0 -1.4039,-1.9217 -1.3995,1.9217 -0.9116,0 1.8831,-2.4995 -1.7162,-2.294 0.8731,0 1.2711,1.7334 1.2626,-1.7334 0.886,0"
             id="path9977"
             style="fill:#ffffff;font-family:DejaVu Sans Mono;-inkscape-font-specification:DejaVu Sans Mono" />
          <path
             d="m 3683.8592,-1066.1651 0.291,0 c 0.4024,0 0.6649,-0.063 0.7876,-0.1883 0.1227,-0.1255 0.184,-0.3895 0.184,-0.7918 l 0,-1.0614 c 0,-0.4451 0.064,-0.769 0.1926,-0.9716 0.1284,-0.2026 0.351,-0.3424 0.6677,-0.4194 -0.3139,-0.071 -0.5365,-0.2083 -0.6677,-0.4109 -0.1284,-0.2026 -0.1926,-0.5278 -0.1926,-0.9758 l 0,-1.0614 c 0,-0.4024 -0.061,-0.6663 -0.184,-0.7918 -0.1227,-0.1256 -0.3852,-0.1883 -0.7876,-0.1884 l -0.291,0 0,-0.612 0.2654,0 c 0.7104,0 1.1855,0.1056 1.4252,0.3167 0.2397,0.2083 0.3595,0.6278 0.3595,1.2583 l 0,1.0272 c 0,0.428 0.076,0.7233 0.2269,0.886 0.154,0.1626 0.4322,0.2439 0.8345,0.2439 l 0.274,0 0,0.6121 -0.274,0 c -0.4023,0 -0.6805,0.083 -0.8345,0.2482 -0.1513,0.1655 -0.2269,0.4637 -0.2269,0.8945 l 0,1.0229 c 0,0.6306 -0.1198,1.0515 -0.3595,1.2626 -0.2397,0.2112 -0.7148,0.3167 -1.4252,0.3167 l -0.2654,0 0,-0.6163"
             id="path9979"
             style="fill:#ffffff;font-family:DejaVu Sans Mono;-inkscape-font-specification:DejaVu Sans Mono" />
        </g>
        <g
           transform="matrix(2.0003,0,0,2,-3609.1,634.134)"
           id="g9949"
           style="font-size:8.76535797px;font-style:normal;font-variant:normal;font-weight:normal;font-stretch:normal;opacity:0.15;fill:#000000;fill-opacity:1;stroke:none;font-family:Courier 10 Pitch;-inkscape-font-specification:Courier 10 Pitch">
          <path
             d="m 3655.2528,-1071.3549 0,0.7704 c -0.2254,-0.1313 -0.4523,-0.2297 -0.6805,-0.2953 -0.2283,-0.066 -0.4608,-0.099 -0.6977,-0.099 -0.3566,0 -0.6234,0.059 -0.8003,0.1755 -0.1741,0.1141 -0.2611,0.2896 -0.2611,0.5264 0,0.214 0.066,0.3738 0.1969,0.4794 0.1312,0.1056 0.4579,0.2083 0.9801,0.3082 l 0.3167,0.06 c 0.3909,0.074 0.6862,0.2225 0.886,0.4451 0.2025,0.2225 0.3038,0.5122 0.3038,0.8688 0,0.4737 -0.1683,0.8446 -0.505,1.1128 -0.3367,0.2654 -0.8046,0.398 -1.4038,0.398 -0.2369,0 -0.4851,-0.026 -0.7447,-0.077 -0.2597,-0.049 -0.5407,-0.1227 -0.8432,-0.2225 l 0,-0.8132 c 0.2939,0.1512 0.575,0.2653 0.8432,0.3424 0.2682,0.074 0.5221,0.1112 0.7618,0.1112 0.3481,0 0.6177,-0.07 0.8089,-0.2097 0.1912,-0.1426 0.2868,-0.341 0.2868,-0.5949 0,-0.3652 -0.3496,-0.6177 -1.0486,-0.7576 l -0.034,-0.01 -0.2953,-0.06 c -0.4537,-0.089 -0.7846,-0.2369 -0.9929,-0.4451 -0.2083,-0.2112 -0.3125,-0.4979 -0.3125,-0.8603 0,-0.4594 0.1555,-0.8132 0.4665,-1.0614 0.3111,-0.2511 0.7547,-0.3767 1.3311,-0.3767 0.2568,0 0.5036,0.024 0.7404,0.073 0.2369,0.046 0.4694,0.1155 0.6977,0.2097"
             id="path9951"
             style="font-family:DejaVu Sans Mono;-inkscape-font-specification:DejaVu Sans Mono" />
          <path
             d="m 3657.8135,-1069.1036 c 0,0.6106 0.096,1.0714 0.2867,1.3824 0.1941,0.311 0.4808,0.4665 0.8603,0.4665 0.3795,0 0.6663,-0.1555 0.8603,-0.4665 0.1969,-0.3139 0.2953,-0.7747 0.2953,-1.3824 0,-0.6078 -0.098,-1.0672 -0.2953,-1.3782 -0.194,-0.3139 -0.4808,-0.4708 -0.8603,-0.4708 -0.3795,0 -0.6662,0.1555 -0.8603,0.4665 -0.1911,0.311 -0.2867,0.7718 -0.2867,1.3825 m 2.3026,1.7804 c -0.1284,0.2368 -0.3024,0.4195 -0.5222,0.5478 -0.2168,0.1256 -0.4693,0.1884 -0.7575,0.1884 -0.5735,0 -1.0272,-0.2212 -1.361,-0.6634 -0.331,-0.4451 -0.4965,-1.0572 -0.4965,-1.8361 0,-0.7932 0.1655,-1.4138 0.4965,-1.8618 0.331,-0.448 0.7846,-0.672 1.361,-0.672 0.2853,0 0.5364,0.063 0.7533,0.1884 0.2197,0.1226 0.3951,0.3024 0.5264,0.5392 l 0,-0.612 0.7918,0 0,6.6168 -0.7918,0 0,-2.4353"
             id="path9953"
             style="font-family:DejaVu Sans Mono;-inkscape-font-specification:DejaVu Sans Mono" />
          <path
             d="m 3666.5463,-1070.4394 c -0.1683,-0.1313 -0.3395,-0.2268 -0.5136,-0.2868 -0.174,-0.06 -0.3652,-0.09 -0.5735,-0.09 -0.4908,0 -0.866,0.154 -1.1256,0.4622 -0.2597,0.3082 -0.3895,0.7533 -0.3895,1.3353 l 0,2.384 -0.7918,0 0,-4.7936 0.7918,0 0,0.9373 c 0.1312,-0.3395 0.3324,-0.5992 0.6035,-0.7789 0.2739,-0.1826 0.5977,-0.2739 0.9715,-0.2739 0.194,0 0.3752,0.024 0.5436,0.073 0.1683,0.049 0.3295,0.1241 0.4836,0.2269 l 0,0.8046"
             id="path9955"
             style="font-family:DejaVu Sans Mono;-inkscape-font-specification:DejaVu Sans Mono" />
          <path
             d="m 3669.8788,-1072.7579 0,1.3611 1.789,0 0,0.612 -1.789,0 0,2.6022 c 0,0.3538 0.067,0.6006 0.2011,0.7405 0.1341,0.1398 0.3681,0.2097 0.7019,0.2097 l 0.886,0 0,0.6291 -0.963,0 c -0.5906,0 -1.0072,-0.1184 -1.2498,-0.3552 -0.2425,-0.2368 -0.3638,-0.6449 -0.3638,-1.2241 l 0,-2.6022 -1.2797,0 0,-0.612 1.2797,0 0,-1.3611 0.7876,0"
             id="path9957"
             style="font-family:DejaVu Sans Mono;-inkscape-font-specification:DejaVu Sans Mono" />
          <path
             d="m 3677.1676,-1066.1651 0,0.6163 -0.2739,0 c -0.7105,0 -1.187,-0.1055 -1.4295,-0.3167 -0.2397,-0.2111 -0.3596,-0.632 -0.3595,-1.2626 l 0,-1.0229 c -10e-5,-0.4308 -0.077,-0.729 -0.2312,-0.8945 -0.1512,-0.1655 -0.4265,-0.2482 -0.826,-0.2482 l -0.2654,0 0,-0.6121 0.2654,0 c 0.4023,0 0.6791,-0.081 0.8303,-0.2439 0.1512,-0.1627 0.2268,-0.458 0.2269,-0.886 l 0,-1.0272 c -10e-5,-0.6305 0.1198,-1.05 0.3595,-1.2583 0.2425,-0.2111 0.719,-0.3167 1.4295,-0.3167 l 0.2739,0 0,0.612 -0.2996,0 c -0.3995,1e-4 -0.6606,0.063 -0.7832,0.1884 -0.1199,0.1227 -0.1798,0.3866 -0.1798,0.7918 l 0,1.0614 c 0,0.448 -0.066,0.7732 -0.1969,0.9758 -0.1284,0.2026 -0.3495,0.3396 -0.6634,0.4109 0.3167,0.077 0.5393,0.2168 0.6677,0.4194 0.1284,0.2026 0.1926,0.5265 0.1926,0.9716 l 0,1.0614 c 0,0.408 0.06,0.6734 0.1798,0.7961 0.1226,0.1227 0.3837,0.184 0.7832,0.184 l 0.2996,0"
             id="path9959"
             style="font-family:DejaVu Sans Mono;-inkscape-font-specification:DejaVu Sans Mono" />
          <path
             d="m 3682.5192,-1071.5218 -1.7163,2.294 1.8832,2.4995 -0.9116,0 -1.4039,-1.9217 -1.3995,1.9217 -0.9116,0 1.8831,-2.4995 -1.7162,-2.294 0.8731,0 1.2711,1.7334 1.2626,-1.7334 0.886,0"
             id="path9961"
             style="font-family:DejaVu Sans Mono;-inkscape-font-specification:DejaVu Sans Mono" />
          <path
             d="m 3683.8592,-1066.1651 0.291,0 c 0.4024,0 0.6649,-0.063 0.7876,-0.1883 0.1227,-0.1255 0.184,-0.3895 0.184,-0.7918 l 0,-1.0614 c 0,-0.4451 0.064,-0.769 0.1926,-0.9716 0.1284,-0.2026 0.351,-0.3424 0.6677,-0.4194 -0.3139,-0.071 -0.5365,-0.2083 -0.6677,-0.4109 -0.1284,-0.2026 -0.1926,-0.5278 -0.1926,-0.9758 l 0,-1.0614 c 0,-0.4024 -0.061,-0.6663 -0.184,-0.7918 -0.1227,-0.1256 -0.3852,-0.1883 -0.7876,-0.1884 l -0.291,0 0,-0.612 0.2654,0 c 0.7104,0 1.1855,0.1056 1.4252,0.3167 0.2397,0.2083 0.3595,0.6278 0.3595,1.2583 l 0,1.0272 c 0,0.428 0.076,0.7233 0.2269,0.886 0.154,0.1626 0.4322,0.2439 0.8345,0.2439 l 0.274,0 0,0.6121 -0.274,0 c -0.4023,0 -0.6805,0.083 -0.8345,0.2482 -0.1513,0.1655 -0.2269,0.4637 -0.2269,0.8945 l 0,1.0229 c 0,0.6306 -0.1198,1.0515 -0.3595,1.2626 -0.2397,0.2112 -0.7148,0.3167 -1.4252,0.3167 l -0.2654,0 0,-0.6163"
             id="path9963"
             style="font-family:DejaVu Sans Mono;-inkscape-font-specification:DejaVu Sans Mono" />
        </g>
        <g
           transform="matrix(2.0003,0,0,2,-3609.1,632.134)"
           id="g8358"
           style="font-size:8.76535797px;font-style:normal;font-variant:normal;font-weight:normal;font-stretch:normal;opacity:0.9;fill:url(#linearGradient24337);fill-opacity:1;stroke:none;font-family:Courier 10 Pitch;-inkscape-font-specification:Courier 10 Pitch">
          <path
             d="m 3655.2528,-1071.3549 0,0.7704 c -0.2254,-0.1313 -0.4523,-0.2297 -0.6805,-0.2953 -0.2283,-0.066 -0.4608,-0.099 -0.6977,-0.099 -0.3566,0 -0.6234,0.059 -0.8003,0.1755 -0.1741,0.1141 -0.2611,0.2896 -0.2611,0.5264 0,0.214 0.066,0.3738 0.1969,0.4794 0.1312,0.1056 0.4579,0.2083 0.9801,0.3082 l 0.3167,0.06 c 0.3909,0.074 0.6862,0.2225 0.886,0.4451 0.2025,0.2225 0.3038,0.5122 0.3038,0.8688 0,0.4737 -0.1683,0.8446 -0.505,1.1128 -0.3367,0.2654 -0.8046,0.398 -1.4038,0.398 -0.2369,0 -0.4851,-0.026 -0.7447,-0.077 -0.2597,-0.049 -0.5407,-0.1227 -0.8432,-0.2225 l 0,-0.8132 c 0.2939,0.1512 0.575,0.2653 0.8432,0.3424 0.2682,0.074 0.5221,0.1112 0.7618,0.1112 0.3481,0 0.6177,-0.07 0.8089,-0.2097 0.1912,-0.1426 0.2868,-0.341 0.2868,-0.5949 0,-0.3652 -0.3496,-0.6177 -1.0486,-0.7576 l -0.034,-0.01 -0.2953,-0.06 c -0.4537,-0.089 -0.7846,-0.2369 -0.9929,-0.4451 -0.2083,-0.2112 -0.3125,-0.4979 -0.3125,-0.8603 0,-0.4594 0.1555,-0.8132 0.4665,-1.0614 0.3111,-0.2511 0.7547,-0.3767 1.3311,-0.3767 0.2568,0 0.5036,0.024 0.7404,0.073 0.2369,0.046 0.4694,0.1155 0.6977,0.2097"
             id="path8361"
             style="fill:url(#linearGradient24323);fill-opacity:1;font-family:DejaVu Sans Mono;-inkscape-font-specification:DejaVu Sans Mono" />
          <path
             d="m 3657.8135,-1069.1036 c 0,0.6106 0.096,1.0714 0.2867,1.3824 0.1941,0.311 0.4808,0.4665 0.8603,0.4665 0.3795,0 0.6663,-0.1555 0.8603,-0.4665 0.1969,-0.3139 0.2953,-0.7747 0.2953,-1.3824 0,-0.6078 -0.098,-1.0672 -0.2953,-1.3782 -0.194,-0.3139 -0.4808,-0.4708 -0.8603,-0.4708 -0.3795,0 -0.6662,0.1555 -0.8603,0.4665 -0.1911,0.311 -0.2867,0.7718 -0.2867,1.3825 m 2.3026,1.7804 c -0.1284,0.2368 -0.3024,0.4195 -0.5222,0.5478 -0.2168,0.1256 -0.4693,0.1884 -0.7575,0.1884 -0.5735,0 -1.0272,-0.2212 -1.361,-0.6634 -0.331,-0.4451 -0.4965,-1.0572 -0.4965,-1.8361 0,-0.7932 0.1655,-1.4138 0.4965,-1.8618 0.331,-0.448 0.7846,-0.672 1.361,-0.672 0.2853,0 0.5364,0.063 0.7533,0.1884 0.2197,0.1226 0.3951,0.3024 0.5264,0.5392 l 0,-0.612 0.7918,0 0,6.6168 -0.7918,0 0,-2.4353"
             id="path8363"
             style="fill:url(#linearGradient24325);fill-opacity:1;font-family:DejaVu Sans Mono;-inkscape-font-specification:DejaVu Sans Mono" />
          <path
             d="m 3666.5463,-1070.4394 c -0.1683,-0.1313 -0.3395,-0.2268 -0.5136,-0.2868 -0.174,-0.06 -0.3652,-0.09 -0.5735,-0.09 -0.4908,0 -0.866,0.154 -1.1256,0.4622 -0.2597,0.3082 -0.3895,0.7533 -0.3895,1.3353 l 0,2.384 -0.7918,0 0,-4.7936 0.7918,0 0,0.9373 c 0.1312,-0.3395 0.3324,-0.5992 0.6035,-0.7789 0.2739,-0.1826 0.5977,-0.2739 0.9715,-0.2739 0.194,0 0.3752,0.024 0.5436,0.073 0.1683,0.049 0.3295,0.1241 0.4836,0.2269 l 0,0.8046"
             id="path8365"
             style="fill:url(#linearGradient24327);fill-opacity:1;font-family:DejaVu Sans Mono;-inkscape-font-specification:DejaVu Sans Mono" />
          <path
             d="m 3669.8788,-1072.7579 0,1.3611 1.789,0 0,0.612 -1.789,0 0,2.6022 c 0,0.3538 0.067,0.6006 0.2011,0.7405 0.1341,0.1398 0.3681,0.2097 0.7019,0.2097 l 0.886,0 0,0.6291 -0.963,0 c -0.5906,0 -1.0072,-0.1184 -1.2498,-0.3552 -0.2425,-0.2368 -0.3638,-0.6449 -0.3638,-1.2241 l 0,-2.6022 -1.2797,0 0,-0.612 1.2797,0 0,-1.3611 0.7876,0"
             id="path8367"
             style="fill:url(#linearGradient24329);fill-opacity:1;font-family:DejaVu Sans Mono;-inkscape-font-specification:DejaVu Sans Mono" />
          <path
             d="m 3677.1676,-1066.1651 0,0.6163 -0.2739,0 c -0.7105,0 -1.187,-0.1055 -1.4295,-0.3167 -0.2397,-0.2111 -0.3596,-0.632 -0.3595,-1.2626 l 0,-1.0229 c -10e-5,-0.4308 -0.077,-0.729 -0.2312,-0.8945 -0.1512,-0.1655 -0.4265,-0.2482 -0.826,-0.2482 l -0.2654,0 0,-0.6121 0.2654,0 c 0.4023,0 0.6791,-0.081 0.8303,-0.2439 0.1512,-0.1627 0.2268,-0.458 0.2269,-0.886 l 0,-1.0272 c -10e-5,-0.6305 0.1198,-1.05 0.3595,-1.2583 0.2425,-0.2111 0.719,-0.3167 1.4295,-0.3167 l 0.2739,0 0,0.612 -0.2996,0 c -0.3995,1e-4 -0.6606,0.063 -0.7832,0.1884 -0.1199,0.1227 -0.1798,0.3866 -0.1798,0.7918 l 0,1.0614 c 0,0.448 -0.066,0.7732 -0.1969,0.9758 -0.1284,0.2026 -0.3495,0.3396 -0.6634,0.4109 0.3167,0.077 0.5393,0.2168 0.6677,0.4194 0.1284,0.2026 0.1926,0.5265 0.1926,0.9716 l 0,1.0614 c 0,0.408 0.06,0.6734 0.1798,0.7961 0.1226,0.1227 0.3837,0.184 0.7832,0.184 l 0.2996,0"
             id="path8369"
             style="fill:url(#linearGradient24331);fill-opacity:1;font-family:DejaVu Sans Mono;-inkscape-font-specification:DejaVu Sans Mono" />
          <path
             d="m 3682.5192,-1071.5218 -1.7163,2.294 1.8832,2.4995 -0.9116,0 -1.4039,-1.9217 -1.3995,1.9217 -0.9116,0 1.8831,-2.4995 -1.7162,-2.294 0.8731,0 1.2711,1.7334 1.2626,-1.7334 0.886,0"
             id="path8371"
             style="fill:url(#linearGradient24333);fill-opacity:1;font-family:DejaVu Sans Mono;-inkscape-font-specification:DejaVu Sans Mono" />
          <path
             d="m 3683.8592,-1066.1651 0.291,0 c 0.4024,0 0.6649,-0.063 0.7876,-0.1883 0.1227,-0.1255 0.184,-0.3895 0.184,-0.7918 l 0,-1.0614 c 0,-0.4451 0.064,-0.769 0.1926,-0.9716 0.1284,-0.2026 0.351,-0.3424 0.6677,-0.4194 -0.3139,-0.071 -0.5365,-0.2083 -0.6677,-0.4109 -0.1284,-0.2026 -0.1926,-0.5278 -0.1926,-0.9758 l 0,-1.0614 c 0,-0.4024 -0.061,-0.6663 -0.184,-0.7918 -0.1227,-0.1256 -0.3852,-0.1883 -0.7876,-0.1884 l -0.291,0 0,-0.612 0.2654,0 c 0.7104,0 1.1855,0.1056 1.4252,0.3167 0.2397,0.2083 0.3595,0.6278 0.3595,1.2583 l 0,1.0272 c 0,0.428 0.076,0.7233 0.2269,0.886 0.154,0.1626 0.4322,0.2439 0.8345,0.2439 l 0.274,0 0,0.6121 -0.274,0 c -0.4023,0 -0.6805,0.083 -0.8345,0.2482 -0.1513,0.1655 -0.2269,0.4637 -0.2269,0.8945 l 0,1.0229 c 0,0.6306 -0.1198,1.0515 -0.3595,1.2626 -0.2397,0.2112 -0.7148,0.3167 -1.4252,0.3167 l -0.2654,0 0,-0.6163"
             id="path8373"
             style="fill:url(#linearGradient24335);fill-opacity:1;font-family:DejaVu Sans Mono;-inkscape-font-specification:DejaVu Sans Mono" />
        </g>
        <use
           transform="matrix(-1,0,0,1,7460,0)"
           id="use10356"
           x="0"
           y="0"
           width="5033"
           height="1085"
           xlink:href="#rect10222" />
        <path
           d="m 3672.4957,-1527.1378 115.0084,0 m -115.0084,-45 115.0084,0 m -115.0084,-20 115.0084,0"
           id="path10495"
           style="opacity:0.75;fill:none;stroke:#ffffff;stroke-width:1px;stroke-linecap:square;stroke-linejoin:miter;stroke-opacity:1" />
        <path
           d="m 3781.5,-1597.1369 0,72.9991 m -103,-72.9991 0,72.9991 m 51,-72.9991 0,72.9991 m -57.0043,-4 115.0084,0 m -115.0084,-45 115.0084,0 m -115.0084,-20 115.0084,0"
           id="path9671"
           style="opacity:0.25;fill:none;stroke:#f87019;stroke-width:1;stroke-linecap:square;stroke-linejoin:miter;stroke-miterlimit:4;stroke-opacity:1;stroke-dasharray:1, 1;stroke-dashoffset:0" />
        <path
           d="m 3721.9679,-1592.6378 60.0325,0 0,12.0001 -6.0033,0 0,-4 -48.2859,0 -24.3647,57.9999 -5.0992,0 -14.8145,-31.5448 -5.8739,3.2928 -2.1997,-7.5648 0.6725,-1.5554 12.0751,-3.6375 12.5939,24.5797 21.2624,-49.57"
           id="path10337"
           style="font-size:8px;font-style:normal;font-variant:normal;font-weight:normal;font-stretch:normal;fill:#ffffff;fill-opacity:1;stroke:none;font-family:Symbol;-inkscape-font-specification:Symbol" />
        <path
           d="m 3781.5,-1597.1369 0,72.9991 m -103,-72.9991 0,72.9991 m 51,-72.9991 0,72.9991 m -57.0043,-4 115.0084,0 m -115.0084,-45 115.0084,0 m -115.0084,-20 115.0084,0"
           id="path10497"
           style="opacity:0.7;fill:none;stroke:#f87019;stroke-width:1;stroke-linecap:square;stroke-linejoin:miter;stroke-miterlimit:4;stroke-opacity:1;stroke-dasharray:1, 3;stroke-dashoffset:0" />
        <path
           d="m 3721.9679,-1593.6378 60.0325,0 0,12.0001 -6.0033,0 0,-4 -49.0203,0 -24.4584,57.9999 -3.5523,0 -14.9799,-31.9656 -5.8335,3.0573 -2.1523,-7.4951 12.1064,-4.6063 12.5939,24.5797 21.2624,-49.57"
           id="path8416"
           style="font-size:8px;font-style:normal;font-variant:normal;font-weight:normal;font-stretch:normal;opacity:0.8;fill:url(#linearGradient24339);fill-opacity:1;stroke:none;font-family:Symbol;-inkscape-font-specification:Symbol" />
        <path
           d="m 3778.8992,-1572.6378 -10.4586,0 -12.1902,15.9972 -0.3098,0 -11.777,-15.9972 -11.275,0 16.8719,22.4298 0,0.285 -16.9604,23.2852 10.6244,0 12.3093,-16.7093 0.31,0 12.3979,16.7093 11.3625,0 -17.3636,-23.6652 0,-0.2852 16.4586,-22.0496"
           id="path10339"
           style="font-size:51.65289307px;font-style:normal;font-variant:normal;font-weight:normal;font-stretch:normal;color:#000000;fill:#ffffff;fill-opacity:1;fill-rule:nonzero;stroke:none;marker:none;visibility:visible;display:inline;overflow:visible;enable-background:accumulate;font-family:Vegur;-inkscape-font-specification:Vegur" />
        <path
           d="m 3778.3578,-1573.6378 -9.9172,0 -12.1902,15.9972 -0.3098,0 -11.777,-15.9972 -10.7437,0 16.8719,22.4298 0,0.285 -17.4917,23.2852 9.9173,0 13.0164,-17.328 0.31,0 13.0166,17.328 10.7438,0 -17.905,-23.6652 0,-0.2852 16.4586,-22.0496"
           id="path8420"
           style="font-size:51.65289307px;font-style:normal;font-variant:normal;font-weight:normal;font-stretch:normal;opacity:0.8;color:#000000;fill:url(#linearGradient24341);fill-opacity:1;fill-rule:nonzero;stroke:none;marker:none;visibility:visible;display:inline;overflow:visible;enable-background:accumulate;font-family:Vegur;-inkscape-font-specification:Vegur" />
        <path
           d="m 3721.9688,-1593.6378 -21.2813,49.5625 -12.5937,-24.5625 -12.0938,4.5937 0.3125,1.125 11.1875,-4.375 13.1875,25.875 22.0937,-51.2187 58.2188,0 0,11 1,0 0,-12 -60.0312,0 z m 54.0312,8 0,4 1.0938,0 0,-3.125 -1.0626,-0.875 -0.031,0 z"
           id="path9853"
           style="font-size:8px;font-style:normal;font-variant:normal;font-weight:normal;font-stretch:normal;opacity:0.25;fill:#000000;fill-opacity:1;stroke:none;font-family:Symbol;-inkscape-font-specification:Symbol" />
        <path
           d="m 3733.4062,-1573.6378 0.75,1 9.4688,0 11.7812,16 1.4063,0 12.1875,-16 8.5938,0 0.75,-1 -9.9063,0 -12.1875,16 -0.3125,0 -11.7813,-16 -10.75,0 z m 28.5,22.0625 -0.4687,1.2812 17.1563,22.6563 1.2187,0 -17.9063,-23.6563 0,-0.2812 z m -11.625,0.5 0,0.1562 -17.4687,23.2813 1.3125,0 16.7188,-22.2813 -0.5626,-1.1562 z"
           id="path9899"
           style="font-size:51.65289307px;font-style:normal;font-variant:normal;font-weight:normal;font-stretch:normal;opacity:0.25;color:#000000;fill:#000000;fill-opacity:1;fill-rule:nonzero;stroke:none;marker:none;visibility:visible;display:inline;overflow:visible;enable-background:accumulate;font-family:Vegur;-inkscape-font-specification:Vegur" />
        <rect
           width="120"
           height="1.0000159"
           x="3670"
           y="-1523.6378"
           id="rect10288"
           style="opacity:0.35;color:#000000;fill:url(#linearGradient24343);fill-opacity:1;fill-rule:nonzero;stroke:none;stroke-width:1;marker:none;visibility:visible;display:inline;overflow:visible;enable-background:accumulate" />
        <rect
           width="74"
           height="1.0000159"
           x="-1597.6378"
           y="-3671"
           transform="matrix(0,1,-1,0,0,0)"
           id="rect10312"
           style="opacity:0.35;color:#000000;fill:url(#linearGradient24393);fill-opacity:1;fill-rule:nonzero;stroke:none;stroke-width:1;marker:none;visibility:visible;display:inline;overflow:visible;enable-background:accumulate" />
        <use
           transform="translate(119,0)"
           id="use10350"
           x="0"
           y="0"
           width="5033"
           height="1085"
           xlink:href="#rect10312" />
        <rect
           width="77.75"
           height="1.0000159"
           x="-1599.3878"
           y="-3669"
           transform="matrix(0,1,-1,0,0,0)"
           id="rect10352"
           style="opacity:0.25;color:#000000;fill:url(#linearGradient24395);fill-opacity:1;fill-rule:nonzero;stroke:none;stroke-width:1;marker:none;visibility:visible;display:inline;overflow:visible;enable-background:accumulate" />
        <use
           transform="translate(123,0)"
           id="use10368"
           x="0"
           y="0"
           width="5033"
           height="1085"
           xlink:href="#rect10352" />
        <use
           transform="matrix(0,1,-1.56913,0,1280.85,-5189.64)"
           id="use10386"
           x="0"
           y="0"
           width="5033"
           height="1085"
           xlink:href="#rect10352" />
        <use
           transform="translate(0,26)"
           id="use10408"
           x="0"
           y="0"
           width="5033"
           height="1085"
           xlink:href="#use10386" />
        <use
           transform="translate(0,-23)"
           id="use10410"
           style="opacity:0.5"
           x="0"
           y="0"
           width="5033"
           height="1085"
           xlink:href="#use10408" />
        <rect
           width="20"
           height="20"
           x="3770"
           y="-1516.6378"
           id="rect10420"
           style="opacity:0.15;color:#000000;fill:url(#linearGradient24397);fill-opacity:1;fill-rule:nonzero;stroke:none;stroke-width:2;marker:none;visibility:visible;display:inline;overflow:visible;enable-background:accumulate" />
        <use
           transform="matrix(-1,0,0,1,7460,0)"
           id="use10426"
           x="0"
           y="0"
           width="5033"
           height="1085"
           xlink:href="#rect10420" />
        <use
           transform="matrix(0,1,-1.56913,0,1280.85,-5188.64)"
           id="use10430"
           style="opacity:0.5"
           x="0"
           y="0"
           width="5033"
           height="1085"
           xlink:href="#rect10352" />
        <use
           transform="matrix(0,1,-1.56913,0,1280.85,-5268.64)"
           id="use10434"
           style="opacity:0.5"
           x="0"
           y="0"
           width="5033"
           height="1085"
           xlink:href="#rect10352" />
        <path
           d="m 3666,-1542.6378 0,49 0,1 1,0 49,0 0,-1 -49,0 0,-49 -1,0 z"
           id="path8482-9"
           style="opacity:0.5;color:#000000;fill:url(#linearGradient24399);fill-opacity:1;fill-rule:nonzero;stroke:none;stroke-width:2;marker:none;visibility:visible;display:inline;overflow:visible;enable-background:accumulate" />
        <use
           transform="matrix(-1,0,0,1,7460,0)"
           id="use10476"
           x="0"
           y="0"
           width="5033"
           height="1085"
           xlink:href="#path8482-9" />
        <use
           transform="matrix(-1,0,0,-1,7460,-3095.28)"
           id="use10486"
           style="opacity:0.25"
           x="0"
           y="0"
           width="5033"
           height="1085"
           xlink:href="#path8482-9" />
        <use
           transform="matrix(1,0,0,-1,0,-3095.28)"
           id="use10488"
           style="opacity:0.25"
           x="0"
           y="0"
           width="5033"
           height="1085"
           xlink:href="#path8482-9" />
        <rect
           width="22"
           height="1"
           x="-1517.6378"
           y="-3669"
           transform="matrix(0,1,-1,0,0,0)"
           id="rect10501"
           style="opacity:0.5;color:#000000;fill:url(#linearGradient24401);fill-opacity:1;fill-rule:nonzero;stroke:none;stroke-width:1;marker:none;visibility:visible;display:inline;overflow:visible;enable-background:accumulate" />
        <use
           transform="matrix(1.04544,0,0,1.04544,-43.6665,67.9588)"
           id="use10505"
           x="0"
           y="0"
           width="5033"
           height="1085"
           xlink:href="#rect10501" />
      </g>
    </g>
  </g>
</svg>
